Place,Name,Division,BirthYear,Country,BodyweightKg,Squat1Kg,Squat2Kg,Squat3Kg,Best3SquatKg,Bench1Kg,Bench2Kg,Bench3Kg,Best3BenchKg,Deadlift1Kg,Deadlift2Kg,Deadlift3Kg,Best3DeadliftKg,TotalKg,WeightClassKg,Sex,CyrillicName,Event,Equipment,BirthDate
1,Oksana Motrunchik,Open,1992,Ukraine,46.6,,,,155,,,,90,,,,147.5,392.5,47,F,Оксана Мотрунчик,SBD,Single-ply,
2,Inna Kapkovska,Open,1996,Ukraine,46.6,,,,125,,,,75,,,,122.5,322.5,47,F,Інна Капковська,SBD,Single-ply,
3,Tetyana Zheleznyak,Open,1989,Ukraine,46.8,,,,135,,,,62.5,,,,102.5,300,47,F,Тетяна Железняк,SBD,Single-ply,
DQ,Mariia Polianska,Open,2003,Ukraine,46.8,,,,150,,,,,,,,137.5,,47,F,Марія Полянська,SBD,Single-ply,
1,Anastasiya Derevyanko #1,Open,1987,Ukraine,51.6,,,,195.5,,,,115,,,,185,495.5,52,F,Анастасія Дерев'янко,SBD,Single-ply,
2,Tetyana Shlopko,Open,1996,Ukraine,49.9,,,,177.5,,,,120,,,,150,447.5,52,F,Тетяна Шлопко,SBD,Single-ply,
3,Valeriya Yavorska,Open,2003,Ukraine,51.8,,,,150,,,,92.5,,,,130,372.5,52,F,Валерія Яворська,SBD,Single-ply,
4,Viktoriya Tovstogray,Open,1987,Ukraine,51.8,,,,137.5,,,,65,,,,137.5,340,52,F,Вікторія Товстограй,SBD,Single-ply,
5,Yuliya Stinkova,Open,1983,Ukraine,51.7,,,,130,,,,72.5,,,,132.5,335,52,F,Юлія Стінкова,SBD,Single-ply,
1,Nataliya Gargunovska,Open,1998,Ukraine,56.5,,,,195,,,,117.5,,,,170,482.5,57,F,Наталія Гаргуновська,SBD,Single-ply,
2,Nataliya Grechko,Open,1994,Ukraine,56,,,,160,,,,117.5,,,,147.5,425,57,F,Наталія Гречко,SBD,Single-ply,
3,Katerina Dubina,Open,1983,Ukraine,56.7,,,,162.5,,,,90,,,,142.5,395,57,F,Катерина Дубіна,SBD,Single-ply,
4,Kseniya Ovechkina,Open,1996,Ukraine,56.3,,,,137.5,,,,65,,,,130,332.5,57,F,Ксенія Овечкіна,SBD,Single-ply,
1,Larysa Solovyova,Open,1978,Ukraine,63,200,210,220,220,150,157.5,162.5,162.5,190,205,-220,205,587.5,63,F,Лариса Соловйова,SBD,Single-ply,
2,Larysa Osychka,Open,1986,Ukraine,62.9,160,167.5,172.5,172.5,100,110,-115,110,140,155,160,160,442.5,63,F,Лариса Осичка,SBD,Single-ply,
3,Olena Kubishka,Open,1988,Ukraine,62.6,135,145,-155,145,-77.5,77.5,85,85,120,-125,132.5,132.5,362.5,63,F,Олена Кубишка,SBD,Single-ply,
DQ,Viktoriya Matveeva,Open,1992,Ukraine,63,170,180,187.5,187.5,-87.5,-87.5,-87.5,,145,152.5,-162.5,152.5,,63,F,Вікторія Матвєєва,SBD,Single-ply,
1,Antonina Marchenko,Open,1989,Ukraine,69,225,237.5,245,245,-160,160,-167.5,160,175,185,195,195,600,69,F,Антоніна Марченко,SBD,Single-ply,
2,Anastasiya Antonyuk,Open,2002,Ukraine,66.8,-200,200,-210,200,115,125,135,135,-160,160,-170,160,495,69,F,Анастасія Антонюк,SBD,Single-ply,
3,Marina Kovalova,Open,1993,Ukraine,68.6,165,172.5,180,180,80,85,-90,85,155,-165,165,165,430,69,F,Марина Ковальова,SBD,Single-ply,
4,Nellya Kosenko,Open,1968,Ukraine,63.9,-105,105,115,115,60,65,70,70,110,120,-125,120,305,69,F,Нелля Косенко,SBD,Single-ply,
1,Tetyana Melnyk,Open,1985,Ukraine,76,235,245,-247.5,245,181,-190,190,190,195,205,-212.5,205,640,76,F,Тетяна Мельник,SBD,Single-ply,
1,Daria Rusanenko,Open,2001,Ukraine,77.7,240,257.5,-265,257.5,142.5,-152.5,-152.5,142.5,185,200,205,205,605,84,F,Даря Русаненко,SBD,Single-ply,
2,Irina Kolesnikova #2,Open,1986,Ukraine,79.9,-150,-150,150,150,85,-95,-100,85,140,-150,-150,140,375,84,F,Ірина Колеснікова,SBD,Single-ply,
1,Valentina Zagoruyko,Open,1992,Ukraine,92,232.5,-240,240,240,130,137.5,142.5,142.5,182.5,195,-205,195,577.5,84+,F,Валентина Загоруйко,SBD,Single-ply,
1,Oleksandr Agadzhanyan,Open,1979,Ukraine,58.8,200,212.5,,212.5,115,-122.5,-122.5,115,185,195,-200,195,522.5,59,M,Олександр Агаджанян,SBD,Single-ply,
1,Vasil Oliynik,Open,1994,Ukraine,65.8,250,-270,-270,250,140,-150,150,150,220,240,-245,240,640,66,M,Василь Олійник,SBD,Single-ply,
2,Volodymyr Titenkov,Open,1983,Ukraine,65.7,225,-240,240,240,155,167.5,172.5,172.5,170,187.5,-195,187.5,600,66,M,Володимир Тітенков,SBD,Single-ply,
3,Illya Gololobov,Open,1977,Ukraine,65.4,170,180,-185,180,120,127.5,132.5,132.5,,,,180,492.5,66,M,Ілля Гололобов,SBD,Single-ply,
2,Andriy Balenkov,Open,1981,Ukraine,74,220,235,-257.5,235,220,233,-240.5,233,210,-225,-230,210,678,74,M,Андрій Баленков,SBD,Single-ply,
3,Sergiy Zaytsev,Open,1968,Ukraine,74,,,,225,,,,150,,,,227.5,602.5,74,M,Сергій Зайцев,SBD,Single-ply,
4,Stanislav Chernichenko,Open,1991,Ukraine,74,,,,210,,,,50,,,,232.5,492.5,74,M,Станіслав Черниченко,SBD,Single-ply,
DQ,Andriy Stepanov,Open,1992,Ukraine,73.9,,,,,165,175,180,180,240,247.5,250,250,,74,M,Андрій Степанов,SBD,Single-ply,
1,Mykola Barannik,Open,1989,Ukraine,82.7,340,350,357.5,357.5,252.5,257.5,262.5,262.5,275,282.5,287.5,287.5,907.5,83,M,Микола Бараннік,SBD,Single-ply,
2,Vladislav Chornyi,Open,1997,Ukraine,81.1,345,355,-365,355,230,-240,240,240,285,297.5,-312.5,297.5,892.5,83,M,Владислав Чорний,SBD,Single-ply,
3,Andriy Naniev,Open,1984,Ukraine,82.9,-350,-350,350,350,240,-247.5,-247.5,240,290,-295,-295,290,880,83,M,Андрій Наньєв,SBD,Single-ply,
4,Artem Ribalka,Open,1996,Ukraine,81.7,-290,290,-305,290,195,205,215,215,230,245,250,250,755,83,M,Артем Рибалка,SBD,Single-ply,
5,Vitaliy Fanta,Open,1982,Ukraine,83,,285,-300,285,-150,150,157.5,157.5,255,-270,-270,255,697.5,83,M,Віталій Фанта,SBD,Single-ply,
DQ,Vitaliy Kolomoets,Open,1992,Ukraine,82.8,-350,-350,-350,,-230,230,245,245,310,320,-335,320,,83,M,Віталій Коломоєць,SBD,Single-ply,
1,Kostiantyn Musiienko,Open,1997,Ukraine,92.7,-375,375,390,390,325,340.5,-355.5,340.5,290,-305,305,305,1035.5,93,M,Костянтин Мусієнко,SBD,Single-ply,
2,Volodymyr Rysiev,Open,1982,Ukraine,92.4,340,360,,360,265,280,-295,280,315,-325,325,325,965,93,M,Володимир Рисєв,SBD,Single-ply,
3,Volodymyr Dubovoy,Open,1990,Ukraine,92.8,,,,355,,,,215,,,,262.5,832.5,93,M,Володимир Дубовой,SBD,Single-ply,
1,Danylo Kovalyov,Open,1996,Ukraine,104.2,380,-400,-410,380,280,-295,295,295,300,-330,-330,300,975,105,M,Данило Ковальов,SBD,Single-ply,
2,Sergiy Mikita,Open,1988,Ukraine,104.9,,,,300,,,,187.5,,,,240,727.5,105,M,Сергій Микита,SBD,Single-ply,
1,Oleksiy Bychkov,Open,1985,Ukraine,118.1,380,390,395,395,310,-325,332.5,332.5,350,375,-408.5,375,1102.5,120,M,Олексій Бичков,SBD,Single-ply,
2,Oleksandr Rubets,Open,1996,Ukraine,105.4,415,435,-445.5,435,285,295,-305,295,337.5,355,,355,1085,120,M,Олександр Рубець,SBD,Single-ply,
3,Viktor Leskovets,Open,1990,Ukraine,109.3,390,405,415,415,330,-346,346,346,295,305,315,315,1076,120,M,Віктор Лесковець,SBD,Single-ply,
4,Artem Suprun,Open,1986,Ukraine,118.6,,,,325,,,,272.5,,,,270,867.5,120,M,Артем Супрун,SBD,Single-ply,
5,Artem Marinov,Open,1987,Ukraine,110.7,,,,307.5,,,,230,,,,260,797.5,120,M,Артем Марінов,SBD,Single-ply,
1,Viktor Golinei,Open,2000,Ukraine,149.2,405,435,445,445,305,320,330,330,325,340,352.5,352.5,1127.5,120+,M,Віктор Голіней,SBD,Single-ply,
2,Andrii Shevchenko,Open,1995,Ukraine,142.3,415,435,-445,435,315,330,340,340,315,335,-352.5,335,1110,120+,M,Андрій Шевченко,SBD,Single-ply,
3,Bogdan Semko,Open,1993,Ukraine,127.7,,,,335,,,,262.5,,,,302.5,900,120+,M,Богдан Семко,SBD,Single-ply,
DQ,Artur Mamedov,Open,1987,Ukraine,139.1,-355,-355,-355,,,,,242.5,,,,265,,120+,M,Артур Мамедов,SBD,Single-ply,
