Division,WeightClassKg,Place,Name,Team,BodyweightKg,Best3SquatKg,Best3BenchKg,Best3DeadliftKg,TotalKg,Equipment,Event,Sex
Boys,51.71,1,Lane Fikes,Robinson,50.89,113.4,65.77,131.54,310.71,Single-ply,SBD,M
Boys,51.71,2,Tanner Blackwell,Gatesville,51.71,113.4,58.97,120.2,292.57,Single-ply,SBD,M
Boys,55.79,3,Shyrod Anderson,Cleburne,51.8,108.86,52.16,131.54,292.57,Single-ply,SBD,M
Boys,51.71,4,Chris Fehlman,McGregor,46.72,104.33,52.16,113.4,269.89,Single-ply,SBD,M
Boys,51.71,5,Cody Noller,Rio Vista,50.35,97.52,52.16,108.86,258.55,Single-ply,SBD,M
Boys,51.71,6,Pablo Aviles,West,45.9,97.52,56.7,102.06,256.28,Single-ply,SBD,M
Boys,51.71,7,Jesse Berry #1,Crawford,45.27,97.52,47.63,97.52,242.67,Single-ply,SBD,M
Boys,51.71,8,Wyatt McClaren,Clifton,51.71,86.18,43.09,86.18,215.46,Single-ply,SBD,M
Boys,51.71,9,Morgan Hudson,China Spring,51.07,68.04,45.36,83.91,197.31,Single-ply,SBD,M
Boys,51.71,DQ,Travis Lacina,Crawford,41.55,,,,,Single-ply,SBD,M
Boys,51.71,DQ,Dusty Miser,Whitney,49.9,95.25,,,,Single-ply,SBD,M
Boys,55.79,1,Andrew Knight,Robinson,55.25,167.83,77.11,170.1,415.04,Single-ply,SBD,M
Boys,59.87,2,Tommy Alford,West,55.88,151.95,88.45,147.42,387.82,Single-ply,SBD,M
Boys,55.79,3,Josh McCraw,Gatesville,54.16,142.88,79.38,140.61,362.87,Single-ply,SBD,M
Boys,55.79,4,Micah Thompson,Gatesville,54.98,136.08,61.23,147.42,344.73,Single-ply,SBD,M
Boys,55.79,5,Jd Nino,West,53.25,133.81,74.84,124.74,333.39,Single-ply,SBD,M
Boys,55.79,6,Usiel Uribe,Castleberry,55.79,131.54,77.11,113.4,322.05,Single-ply,SBD,M
Boys,55.79,7,Dakota Thomas,Clifton,55.79,111.13,65.77,138.35,315.25,Single-ply,SBD,M
Boys,55.79,8,Sean Worlow,Rio Vista,52.53,102.06,68.04,136.08,306.17,Single-ply,SBD,M
Boys,55.79,9,Aaron Sims,Clifton,55.16,113.4,70.31,115.67,299.37,Single-ply,SBD,M
Boys,55.79,10,Blake Osteen,Whitney,55.79,102.06,68.04,83.91,254.01,Single-ply,SBD,M
Boys,59.87,DQ,Billy Nabors,Waco La Vega,55.88,,,,,Single-ply,SBD,M
Boys,59.87,1,Josh Homesly,Rio Vista,58.33,161.03,79.38,163.29,403.7,Single-ply,SBD,M
Boys,59.87,2,Rey Castro,Waco Reicher Catholic,58.69,140.61,86.18,165.56,392.36,Single-ply,SBD,M
Boys,59.87,3,Garrett Harvey,Whitney,59.87,131.54,79.38,136.08,347,Single-ply,SBD,M
Boys,59.87,4,Michael Lopez,Waco La Vega,59.06,111.13,65.77,127.01,303.91,Single-ply,SBD,M
Boys,59.87,5,Mike Owens,Milford,56.79,95.25,61.23,108.86,265.35,Single-ply,SBD,M
Boys,59.87,DQ,Alex Leos,Robinson,59.87,,,,,Single-ply,SBD,M
Boys,59.87,DQ,Ty Justice,Whitney,59.87,108.86,,,,Single-ply,SBD,M
Boys,59.87,DQ,Jacob Roberts,Whitney,59.87,92.99,,,,Single-ply,SBD,M
Boys,67.13,1,Tyrell Irby,Waco La Vega,66.59,224.53,127.01,244.94,596.47,Single-ply,SBD,M
Boys,67.13,2,Kyree Norman,Waco La Vega,66.59,213.19,115.67,226.8,555.65,Single-ply,SBD,M
Boys,67.13,3,Omar Garza,Robinson,65.14,190.51,104.33,185.97,480.81,Single-ply,SBD,M
Boys,67.13,4,Michael Hammond,Whitney,67.13,174.63,106.59,174.63,455.86,Single-ply,SBD,M
Boys,74.84,5,Juan Frausto,Waco Connally,67.22,174.63,74.84,199.58,449.06,Single-ply,SBD,M
Boys,67.13,6,Chris Sosebee,Whitney,67.13,158.76,106.59,176.9,442.25,Single-ply,SBD,M
Boys,74.84,7,J'Earl Jefferson,Waco Connally,67.36,170.1,79.38,188.24,437.72,Single-ply,SBD,M
Boys,67.13,8,Drew Perry,Robinson,66.41,142.88,108.86,179.17,430.91,Single-ply,SBD,M
Boys,67.13,9,Stephen Mitchell,Robinson,64.86,151.95,88.45,172.37,412.77,Single-ply,SBD,M
Boys,67.13,10,Dustin Liendo,Waco La Vega,66.95,142.88,97.52,158.76,399.16,Single-ply,SBD,M
Boys,67.13,11,Aaron Howell,Cleburne,62.41,142.88,83.91,161.03,387.82,Single-ply,SBD,M
Boys,67.13,12,Noel Flores,Castleberry,63.41,151.95,81.65,142.88,376.48,Single-ply,SBD,M
Boys,67.13,13,Ricky Webb,Clifton,64.68,136.08,77.11,158.76,371.95,Single-ply,SBD,M
Boys,74.84,14,Alec Cagle,China Spring,67.31,136.08,86.18,149.69,371.95,Single-ply,SBD,M
Boys,67.13,15,Caleb Hollingsworth,Grandview,66.13,127.01,74.84,136.08,337.93,Single-ply,SBD,M
Boys,67.13,16,Lenny Rodriguez,West,61.42,133.81,63.5,133.81,331.12,Single-ply,SBD,M
Boys,67.13,17,Zach Sanders,Rio Vista,65.23,122.47,61.23,136.08,319.78,Single-ply,SBD,M
Boys,67.13,18,Jason Brock,Crawford,62.69,113.4,70.31,127.01,310.71,Single-ply,SBD,M
Boys,67.13,19,Jacob Fedler,McGregor,65.86,111.13,63.5,136.08,310.71,Single-ply,SBD,M
Boys,67.13,20,James Temple,China Spring,65.23,90.72,81.65,136.08,308.44,Single-ply,SBD,M
Boys,67.13,21,Jonah Burkett,Crawford,62.05,108.86,70.31,127.01,306.17,Single-ply,SBD,M
Boys,67.13,22,Cody Kemp,Waco Connally,64.14,99.79,63.5,124.74,288.03,Single-ply,SBD,M
Boys,67.13,DQ,Austin Turner #3,Milano,67.13,,,,,Single-ply,SBD,M
Boys,74.84,DQ,Derek Christensen,Crawford,67.31,,,,,Single-ply,SBD,M
Boys,67.13,DQ,Greg Simpson,Cleburne,63.96,,,,,Single-ply,SBD,M
Boys,67.13,DQ,Juan Corrales,Castleberry,65.05,,86.18,161.03,,Single-ply,SBD,M
Boys,74.84,1,Jordan Taylor #1,Waco La Vega,74.48,206.38,127.01,235.87,569.26,Single-ply,SBD,M
Boys,74.84,2,Jermell Garrett,Whitney,74.84,188.24,102.06,204.12,494.42,Single-ply,SBD,M
Boys,74.84,3,Austin Mears,Cleburne,73.66,181.44,117.93,190.51,489.88,Single-ply,SBD,M
Boys,74.84,4,Jose Hernandez #20,China Spring,71.3,163.29,113.4,183.7,460.4,Single-ply,SBD,M
Boys,74.84,5,Harley Patterson,Gatesville,71.58,167.83,88.45,192.78,449.06,Single-ply,SBD,M
Boys,74.84,6,Jamie Czajkowski,Milano,73.48,147.42,111.13,161.03,419.57,Single-ply,SBD,M
Boys,74.84,7,Andrew Evans,Milano,71.58,138.35,95.25,172.37,405.97,Single-ply,SBD,M
Boys,74.84,8,Ben Pannell,Grandview,71.4,147.42,92.99,163.29,403.7,Single-ply,SBD,M
Boys,74.84,9,Jonathan Moore,Crawford,69.58,142.88,90.72,145.15,378.75,Single-ply,SBD,M
Boys,74.84,10,Weldon Bleything,Crawford,67.49,147.42,65.77,151.95,365.14,Single-ply,SBD,M
Boys,74.84,11,Johnathan Snider,McGregor,71.03,138.35,79.38,142.88,360.61,Single-ply,SBD,M
Boys,74.84,12,D'vone Bailey,Waco La Vega,71.85,113.4,86.18,145.15,344.73,Single-ply,SBD,M
Boys,74.84,13,Josh Rodman,Castleberry,74.84,115.67,83.91,142.88,342.46,Single-ply,SBD,M
Boys,74.84,14,Patrick Wright,Waco Reicher Catholic,71.4,122.47,74.84,131.54,328.85,Single-ply,SBD,M
Boys,74.84,15,Travis Semmel,Gatesville,70.58,113.4,77.11,122.47,312.98,Single-ply,SBD,M
Boys,82.1,16,Darian Robinson,Waco Connally,74.93,108.86,77.11,127.01,312.98,Single-ply,SBD,M
Boys,74.84,17,Braxton Skipper,McGregor,68.31,113.4,68.04,129.27,310.71,Single-ply,SBD,M
Boys,74.84,18,Jacob Stanley,Rio Vista,68.31,104.33,70.31,136.08,310.71,Single-ply,SBD,M
Boys,74.84,DQ,Tye Slaughter,Crawford,74.84,,,,,Single-ply,SBD,M
Boys,74.84,DQ,Brandon Pollard,Gatesville,74.66,124.74,,,,Single-ply,SBD,M
Boys,74.84,DQ,Colt Sehon,Robinson,70.85,,,,,Single-ply,SBD,M
Boys,74.84,DQ,Nicky Zavala,Waco La Vega,72.57,136.08,,,,Single-ply,SBD,M
Boys,82.1,1,Rick Aguillon,Castleberry,78.2,226.8,136.08,192.78,555.65,Single-ply,SBD,M
Boys,82.1,2,Michael Armstrong,China Spring,82.1,208.65,131.54,208.65,548.85,Single-ply,SBD,M
Boys,82.1,3,Ty Caruso,Robinson,81.92,199.58,142.88,188.24,530.7,Single-ply,SBD,M
Boys,82.1,4,Julian Young,McGregor,80.29,181.44,106.59,192.78,480.81,Single-ply,SBD,M
Boys,82.1,5,Kenneth Dickerson,Rio Vista,79.2,181.44,104.33,185.97,471.74,Single-ply,SBD,M
Boys,82.1,6,Dustin McLearen,Gatesville,79.83,163.29,99.79,192.78,455.86,Single-ply,SBD,M
Boys,82.1,7,Chris Olsen,Crawford,77.38,151.95,95.25,181.44,428.64,Single-ply,SBD,M
Boys,82.1,8,Dustin Stewart,Cleburne,75.66,158.76,102.06,158.76,419.57,Single-ply,SBD,M
Boys,82.1,9,Stephen Boyle,Clifton,81.47,140.61,95.25,181.44,417.3,Single-ply,SBD,M
Boys,82.1,10,Chase Taylor,Gatesville,76.75,142.88,90.72,158.76,392.36,Single-ply,SBD,M
Boys,82.1,11,Malik Hampton,Waco La Vega,80.29,131.54,90.72,158.76,381.02,Single-ply,SBD,M
Boys,82.1,12,Andrew Kaluza,Waco Reicher Catholic,75.66,140.61,74.84,142.88,358.34,Single-ply,SBD,M
Boys,82.1,13,Chris Luna,Castleberry,79.74,127.01,79.38,120.2,326.59,Single-ply,SBD,M
Boys,82.1,DQ,Colton Cook,Cleburne,82.1,,,,,Single-ply,SBD,M
Boys,82.1,DQ,Tyler Hall,Rio Vista,81.28,133.81,,,,Single-ply,SBD,M
Boys,89.81,1,Matt Perkins,Waco Connally,83.91,213.19,111.13,226.8,551.11,Single-ply,SBD,M
Boys,89.81,2,Michael Martin,China Spring,89.27,204.12,131.54,215.46,551.11,Single-ply,SBD,M
Boys,89.81,3,Roy Rodriguez,Clifton,85.18,215.46,113.4,215.46,544.31,Single-ply,SBD,M
Boys,89.81,4,Jacob Allen,Rio Vista,87.36,188.24,106.59,204.12,498.95,Single-ply,SBD,M
Boys,89.81,5,Casey Baugh,West,82.64,174.63,104.33,213.19,492.15,Single-ply,SBD,M
Boys,89.81,6,John Blair,Cleburne,85.09,174.63,122.47,188.24,485.34,Single-ply,SBD,M
Boys,89.81,7,Josh Barrett,China Spring,88.27,181.44,106.59,190.51,478.54,Single-ply,SBD,M
Boys,89.81,8,Taylor Fox,McGregor,87.54,185.97,104.33,181.44,471.74,Single-ply,SBD,M
Boys,89.81,9,Josh Carroll,Waco La Vega,88.54,172.37,97.52,188.24,458.13,Single-ply,SBD,M
Boys,89.81,10,Kenneth Bible,Clifton,85.37,172.37,113.4,165.56,451.32,Single-ply,SBD,M
Boys,89.81,11,Jacob Rose,Milford,88.81,161.03,113.4,174.63,449.06,Single-ply,SBD,M
Boys,89.81,12,Cyle Hickey,Crawford,88.63,149.69,115.67,172.37,437.72,Single-ply,SBD,M
Boys,89.81,13,Nathan Pogue #2,Crawford,89.27,181.44,90.72,154.22,426.38,Single-ply,SBD,M
Boys,89.81,14,Dustin Shilling,McGregor,88,154.22,90.72,174.63,419.57,Single-ply,SBD,M
Boys,89.81,15,Dalton Carter,Waco Connally,87.54,124.74,99.79,161.03,385.55,Single-ply,SBD,M
Boys,89.81,16,Blake Roberts,Castleberry,89.72,129.27,95.25,161.03,385.55,Single-ply,SBD,M
Boys,89.81,DQ,Kyler Scherf,Milford,89.81,,,,,Single-ply,SBD,M
Boys,89.81,DQ,Marcus Shelton,Castleberry,85.28,,,,,Single-ply,SBD,M
Boys,99.79,1,Brett Blackburn,McGregor,99.61,226.8,136.08,215.46,578.33,Single-ply,SBD,M
Boys,99.79,2,Austin Brewer,Clifton,99.7,197.31,127.01,213.19,537.51,Single-ply,SBD,M
Boys,99.79,3,Matt Meador,Gatesville,93.71,195.04,113.4,206.38,514.83,Single-ply,SBD,M
Boys,99.79,4,Chris Johnson #13,Waco Connally,95.16,199.58,120.2,192.78,512.56,Single-ply,SBD,M
Boys,99.79,5,Parker Hamm,China Spring,95.89,181.44,136.08,195.04,512.56,Single-ply,SBD,M
Boys,99.79,6,Justin Stocks,Robinson,94.08,172.37,124.74,167.83,464.93,Single-ply,SBD,M
Boys,99.79,7,Hayden Houpt,Whitney,97.52,174.63,102.06,181.44,458.13,Single-ply,SBD,M
Boys,99.79,8,Clayton McClaurin,Rio Vista,99.43,154.22,102.06,199.58,455.86,Single-ply,SBD,M
Boys,99.79,9,Miguel Harrera,McGregor,91.44,174.63,111.13,167.83,453.59,Single-ply,SBD,M
Boys,99.79,10,Edi Botello,West,91.9,136.08,70.31,158.76,365.14,Single-ply,SBD,M
Boys,99.79,11,Scott Tucker,McGregor,99.79,136.08,74.84,117.93,328.85,Single-ply,SBD,M
Boys,99.79,12,Ricky Grammer,Grandview,96.71,104.33,102.06,,206.38,Single-ply,SB,M
Boys,99.79,13,Colton Koch,West,99.52,199.58,,,199.58,Single-ply,S,M
Boys,99.79,DQ,Matthew Jentsch,Milano,99.79,,,,,Single-ply,S,M
Boys,99.79,DQ,Dustin Westerfield,Waco La Vega,92.62,217.72,122.47,,,Single-ply,SB,M
Boys,99.79,DQ,Dalton Bynum,Clifton,91.72,,,,,Single-ply,S,M
Boys,109.77,1,Garlin Gonzales,Waco Reicher Catholic,107.41,249.48,167.83,249.48,666.78,Single-ply,SBD,M
Boys,109.77,2,Riley Hubert,Clifton,104.6,247.21,129.27,213.19,589.67,Single-ply,SBD,M
Boys,109.77,3,Austin Pierce,Waco Connally,107.41,235.87,120.2,206.38,562.45,Single-ply,SBD,M
Boys,109.77,4,Nick Mackay,Gatesville,104.24,215.46,131.54,192.78,539.77,Single-ply,SBD,M
Boys,109.77,5,Dylan Alligood,West,102.42,199.58,117.93,215.46,532.97,Single-ply,SBD,M
Boys,109.77,6,Sean Young,Cleburne,102.15,201.85,113.4,201.85,517.1,Single-ply,SBD,M
Boys,109.77,7,Micheal Robinson,McGregor,101.24,208.65,113.4,188.24,510.29,Single-ply,SBD,M
Boys,109.77,8,Justin Ingram,China Spring,106.78,199.58,129.27,181.44,510.29,Single-ply,SBD,M
Boys,109.77,9,Jonathan Hoxie,Waco Reicher Catholic,101.88,185.97,102.06,188.24,476.27,Single-ply,SBD,M
Boys,109.77,10,Shawn Griffin,Castleberry,100.52,181.44,83.91,188.24,453.59,Single-ply,SBD,M
Boys,109.77,11,David Zettler,Waco Reicher Catholic,109.23,165.56,99.79,165.56,430.91,Single-ply,SBD,M
Boys,109.77,DQ,William Willis,Grandview,109.77,,,,,Single-ply,SBD,M
Boys,124.74,1,Tyler Klander,West,117.3,272.16,138.35,235.87,646.37,Single-ply,SBD,M
Boys,124.74,2,John Burgan,Gatesville,117.03,219.99,136.08,231.33,587.4,Single-ply,SBD,M
Boys,124.74,3,Luis Ramírez,Waco Reicher Catholic,110.5,215.46,124.74,213.19,553.38,Single-ply,SBD,M
Boys,124.74,4,Khiry Hart,Waco La Vega,121.29,208.65,124.74,210.92,544.31,Single-ply,SBD,M
Boys,124.74,5,Darius Leonard,Waco Connally,115.48,226.8,113.4,183.7,523.9,Single-ply,SBD,M
Boys,124.74,6,Treston Clark,Waco La Vega,119.48,219.99,106.59,192.78,519.36,Single-ply,SBD,M
Boys,124.74,7,Augie Hinojosa,Whitney,124.74,190.51,106.59,213.19,510.29,Single-ply,SBD,M
Boys,124.74,8,Michael Miller,Whitney,124.28,204.12,111.13,181.44,496.68,Single-ply,SBD,M
Boys,124.74,9,Joseph Holder,West,114.85,199.58,113.4,181.44,494.42,Single-ply,SBD,M
Boys,124.74,10,Brian Pullen,China Spring,124.74,192.78,106.59,181.44,480.81,Single-ply,SBD,M
Boys,124.74,11,Albert Torres,Castleberry,121.74,181.44,97.52,197.31,476.27,Single-ply,SBD,M
Boys,124.74,12,T. Patterson,Rio Vista,119.02,183.7,106.59,172.37,462.66,Single-ply,SBD,M
Boys,124.74,13,Christian Serna,Milano,119.75,181.44,113.4,151.95,446.79,Single-ply,SBD,M
Boys,124.74,14,Dwight Holder,Waco La Vega,116.85,161.03,102.06,158.76,421.84,Single-ply,SBD,M
Boys,124.74,DQ,Will Dreyer,Clifton,124.74,,,,,Single-ply,SBD,M
Boys,124.74,DQ,Juan Benitez,Castleberry,112.58,,,,,Single-ply,SBD,M
Boys,124.74,DQ,Jace Borden,Cleburne,112.58,,,,,Single-ply,SBD,M
Boys,124.74,DQ,Zane Bonham,Cleburne,124.74,,,,,Single-ply,SBD,M
Boys,124.74,DQ,Davis Scarborough,Grandview,118.21,,,,,Single-ply,SBD,M
Boys,124.74,DQ,David Romero,Whitney,120.2,136.08,,,,Single-ply,SBD,M
Boys,124.74+,DQ,Homer Vaughn,Cleburne,140.98,,,,,Single-ply,SBD,M
Boys,124.74+,2,Matt Bruce,China Spring,146.6,190.51,131.54,195.04,517.1,Single-ply,SBD,M
Boys,124.74+,3,Scot York,Robinson,129.27,185.97,140.61,188.24,514.83,Single-ply,SBD,M
Boys,124.74+,4,Tanner Finley,Whitney,138.8,181.44,113.4,174.63,469.47,Single-ply,SBD,M
Boys,124.74+,DQ,Lance Adkins,West,139.98,235.87,,,,Single-ply,SBD,M
Boys,124.74+,DQ,Shane Murphy,Robinson,145.42,,,,,Single-ply,SBD,M
Boys,124.74+,DQ,Michael Lesly,Whitney,141.52,,,,,Single-ply,SBD,M
