Division,WeightClassKg,Place,Name,Team,BodyweightKg,Best3SquatKg,Best3BenchKg,Best3DeadliftKg,TotalKg,Equipment,Event,Sex
Boys,55.79,1,Dylan Wells,Orangefield,54.16,122.47,77.11,136.08,335.66,Single-ply,SBD,M
Boys,55.79,2,Austin Taylor #5,Orangefield,53.89,111.13,65.77,138.35,315.25,Single-ply,SBD,M
Boys,55.79,3,Gunner Grimes,Orangefield,53.98,115.67,58.97,136.08,310.71,Single-ply,SBD,M
Boys,59.87,1,Andre Thomas,West Orange-Stark,59.87,154.22,104.33,167.83,426.38,Single-ply,SBD,M
Boys,59.87,2,Julian Arteaga,Orange Little Cypress-Mauriceville,59.42,124.74,70.31,136.08,331.12,Single-ply,SBD,M
Boys,59.87,3,Airik Cast,Orange Little Cypress-Mauriceville,58.97,102.06,74.84,111.13,288.03,Single-ply,SBD,M
Boys,59.87,4,Simon Ingram,Orange Little Cypress-Mauriceville,58.51,104.33,61.23,117.93,283.5,Single-ply,SBD,M
Boys,59.87,DQ,Kevin Luong,Orangefield,58.06,,,,,Single-ply,SBD,M
Boys,67.13,1,Colby Watts,Silsbee,62.6,161.03,88.45,163.29,412.77,Single-ply,SBD,M
Boys,67.13,2,Will Fontaine,Silsbee,63.96,142.88,92.99,158.76,394.63,Single-ply,SBD,M
Boys,67.13,3,Dakota Williford,Orangefield,64.41,136.08,79.38,142.88,358.34,Single-ply,SBD,M
Boys,67.13,4,Garrison Hughes,Orangefield,64.41,140.61,79.38,120.2,340.19,Single-ply,SBD,M
Boys,67.13,5,Jasachin Harris,West Orange-Stark,64.41,115.67,74.84,142.88,333.39,Single-ply,SBD,M
Boys,67.13,6,Trent Guidry,Orangefield,64.41,131.54,61.23,124.74,317.51,Single-ply,SBD,M
Boys,67.13,7,Jacob Burman,Orange Little Cypress-Mauriceville,65.77,97.52,61.23,131.54,290.3,Single-ply,SBD,M
Boys,67.13,8,Simone Fasanelli,Orangefield,60.33,83.91,61.23,136.08,281.23,Single-ply,SBD,M
Boys,67.13,DQ,Hayden Milam,Orange Little Cypress-Mauriceville,65.77,95.25,,,,Single-ply,SBD,M
Boys,67.13,DQ,Patrick Mickey,West Orange-Stark,63.5,129.27,,,,Single-ply,SBD,M
Boys,67.13,DQ,Jamarcus Ross,West Orange-Stark,65.32,131.54,,,,Single-ply,SBD,M
Boys,67.13,DQ,Jubar Ross,West Orange-Stark,60.78,104.33,65.77,,,Single-ply,SBD,M
Boys,74.84,1,Brant Hyatt,Orangefield,71.21,183.7,104.33,183.7,471.74,Single-ply,SBD,M
Boys,74.84,2,Jerrold Brown,West Orange-Stark,73.48,156.49,90.72,147.42,394.63,Single-ply,SBD,M
Boys,74.84,3,Jaqualon Chaney,West Orange-Stark,73.03,142.88,83.91,147.42,374.21,Single-ply,SBD,M
Boys,74.84,4,Clayton Westbrook,Orangefield,68.04,131.54,97.52,138.35,367.41,Single-ply,SBD,M
Boys,74.84,5,Nicholas Perez,West Orange-Stark,74.39,138.35,79.38,147.42,365.14,Single-ply,SBD,M
Boys,74.84,6,Hykiem Taylor,West Orange-Stark,68.04,133.81,81.65,142.88,358.34,Single-ply,SBD,M
Boys,74.84,DQ,Lucas van Huis,Orange Little Cypress-Mauriceville,72.57,,,,,Single-ply,SBD,M
Boys,82.1,1,Shawn McKay,Orange Little Cypress-Mauriceville,82.1,192.78,111.13,201.85,505.76,Single-ply,SBD,M
Boys,82.1,2,Jacob Harvey,Orangefield,76.2,165.56,111.13,142.88,419.57,Single-ply,SBD,M
Boys,82.1,3,Miguel Lorenzi,Silsbee,80.74,154.22,102.06,142.88,399.16,Single-ply,SBD,M
Boys,82.1,4,Austin Paine,Silsbee,80.74,129.27,113.4,136.08,378.75,Single-ply,SBD,M
Boys,82.1,5,Grant Metts,Orangefield,77.11,147.42,74.84,142.88,365.14,Single-ply,SBD,M
Boys,82.1,6,Aiden Chustz,Silsbee,82.1,131.54,83.91,142.88,358.34,Single-ply,SBD,M
Boys,82.1,7,Sam Brown #2,Orangefield,79.38,111.13,70.31,138.35,319.78,Single-ply,SBD,M
Boys,82.1,DQ,Trip Leger,Orangefield,79.38,,,,,Single-ply,SBD,M
Boys,89.81,1,Dolen Keenon,Silsbee,84.82,172.37,117.93,170.1,460.4,Single-ply,SBD,M
Boys,89.81,2,Steven Wilkerson,West Orange-Stark,88.9,174.63,108.86,176.9,460.4,Single-ply,SBD,M
Boys,89.81,3,Tyrone Brown,West Orange-Stark,87.09,147.42,104.33,156.49,408.23,Single-ply,SBD,M
Boys,89.81,4,Hunter Ashworth,Orangefield,83.01,136.08,83.91,170.1,390.09,Single-ply,SBD,M
Boys,89.81,5,Antonio Bolton,Silsbee,86.18,108.86,79.38,136.08,324.32,Single-ply,SBD,M
Boys,89.81,6,Zane Mills,Orange Little Cypress-Mauriceville,86.64,102.06,83.91,136.08,322.05,Single-ply,SBD,M
Boys,89.81,DQ,Leo Rodriguez,Silsbee,89.81,,,,,Single-ply,SBD,M
Boys,99.79,1,Colt LeBleu,Orange Little Cypress-Mauriceville,96.62,238.14,176.9,260.82,675.85,Single-ply,SBD,M
Boys,99.79,2,Carl Putnam,Silsbee,92.53,188.24,90.72,188.24,467.2,Single-ply,SBD,M
Boys,99.79,3,Shemar Manaway,West Orange-Stark,97.52,147.42,104.33,183.7,435.45,Single-ply,SBD,M
Boys,99.79,4,Hunter Norwood,Orangefield,98.43,167.83,97.52,140.61,405.97,Single-ply,SBD,M
Boys,99.79,5,Dylan Whitman,Orangefield,93.89,142.88,81.65,145.15,369.68,Single-ply,SBD,M
Boys,99.79,6,Kynan Clarke,Orange Little Cypress-Mauriceville,94.35,142.88,83.91,142.88,369.68,Single-ply,SBD,M
Boys,99.79,7,Matthew Joseph,West Orange-Stark,93.44,117.93,61.23,124.74,303.91,Single-ply,SBD,M
Boys,99.79,8,Ethan Meads,Orangefield,94.08,115.67,58.97,111.13,285.76,Single-ply,SBD,M
Boys,99.79,DQ,Sam Spurlock,Silsbee,90.72,,,,,Single-ply,SBD,M
Boys,109.77,1,Santos Garcia,Orangefield,108.41,213.19,158.76,231.33,603.28,Single-ply,SBD,M
Boys,109.77,2,Zach Tillman,Silsbee,108.86,161.03,88.45,163.29,412.77,Single-ply,SBD,M
Boys,109.77,3,Courtney Davis #1,West Orange-Stark,102.51,140.61,83.91,151.95,376.48,Single-ply,SBD,M
Boys,109.77,DQ,Brandon Roberts,Orangefield,104.78,140.61,106.59,,,Single-ply,SBD,M
Boys,124.74,1,Marquell Hale,Silsbee,112.04,290.3,158.76,249.48,698.53,Single-ply,SBD,M
Boys,124.74,2,Darby Jones,West Orange-Stark,113.4,213.19,147.42,226.8,587.4,Single-ply,SBD,M
Boys,124.74,3,Ayden Bell,Silsbee,113.4,215.46,124.74,215.46,555.65,Single-ply,SBD,M
Boys,124.74,4,Quincy Ledet,West Orange-Stark,116.57,206.38,106.59,210.92,523.9,Single-ply,SBD,M
Boys,124.74,5,Stephen Ferguson,Orange Little Cypress-Mauriceville,120.2,185.97,142.88,192.78,521.63,Single-ply,SBD,M
Boys,124.74,6,Coby Coulter,Orangefield,113.85,190.51,115.67,185.97,492.15,Single-ply,SBD,M
Boys,124.74,7,Demetrius Hunter,West Orange-Stark,112.49,174.63,99.79,170.1,444.52,Single-ply,SBD,M
Boys,124.74+,1,Jordan Garrett,West Orange-Stark,135.17,210.92,131.54,215.46,557.92,Single-ply,SBD,M
Boys,124.74+,2,David Thomas #6,Silsbee,133.81,158.76,106.59,170.1,435.45,Single-ply,SBD,M
Boys,124.74+,3,Kollyn Brown,Orange Little Cypress-Mauriceville,165.56,158.76,106.59,163.29,428.64,Single-ply,SBD,M
Boys,124.74+,4,Evan Gray,West Orange-Stark,127.01,129.27,74.84,136.08,340.19,Single-ply,SBD,M
