Name,Age,Division,BodyweightKg,WeightClassKg,Sex,Squat1Kg,Squat2Kg,Squat3Kg,Best3SquatKg,Bench1Kg,Bench2Kg,Bench3Kg,Best3BenchKg,Deadlift1Kg,Deadlift2Kg,Deadlift3Kg,Best3DeadliftKg,TotalKg,Equipment,Place,Event,State
Adam Mamola,29,M-O,82.1,82.5,M,,,,,197.5,-227.5,232.5,232.5,,,,,232.5,Single-ply,1,B,NC
Allan Gatewood,30,M-O,65.68,67.5,M,142.5,160,-170,160,87.5,-100,-100,87.5,155,167.5,-175,167.5,415,Single-ply,5,SBD,NC
Bill Milner,76,M-O,80.74,82.5,M,,,,,92.5,-97.5,-97.5,92.5,,,,,92.5,Single-ply,2,B,NC
Bill Milner,76,MR-O,80.74,82.5,M,,,,,92.5,-97.5,-97.5,92.5,,,,,92.5,Raw,1,B,NC
Bill Milner,76,MR-M4b,80.74,82.5,M,,,,,92.5,-97.5,-97.5,92.5,,,,,92.5,Raw,1,B,SC
Brent Hindman,36,M-O,124.74,125,M,,,,,-185,-190,-190,,,,,,,Single-ply,DQ,B,NC
Brent Hindman,36,MR-O,124.74,125,M,,,,,-185,-190,-190,,,,,,,Raw,DQ,B,SC
Caz Currin,15,M-O,76.57,82.5,M,127.5,132.5,137.5,137.5,92.5,-97.5,-97.5,92.5,137.5,152.5,157.5,157.5,387.5,Single-ply,6,SBD,SC
Caz Currin,15,MR-O,76.57,82.5,M,127.5,132.5,137.5,137.5,92.5,-97.5,-97.5,92.5,137.5,152.5,157.5,157.5,387.5,Raw,3,SBD,NC
Caz Currin,15,MR-T1,76.57,82.5,M,127.5,132.5,137.5,137.5,92.5,-97.5,-97.5,92.5,137.5,152.5,157.5,157.5,387.5,Raw,1,SBD,NC
Charles Patterson,64,M-O,99.79,100,M,,,,,112.5,125,-137.5,125,,,,,125,Single-ply,5,B,NC
Chris Dennis,23,MR-O,117.53,125,M,237.5,-252.5,252.5,252.5,-162.5,-167.5,-167.5,,237.5,250,-272.5,250,502.5,Raw,3,SBD,SC
Daniel Wright,,M-O,59.96,60,M,-65,-65,-65,,35,40,-42.5,40,77.5,92.5,-102.5,92.5,,Single-ply,DQ,SBD,SC
Daniel Wright,,MR-O,59.96,60,M,-65,-65,-65,,35,40,-42.5,40,77.5,92.5,-102.5,92.5,,Raw,DQ,SBD,NC
Daniel Wright,,MR-Y,59.96,60,M,-65,-65,-65,,35,40,-42.5,40,77.5,92.5,-102.5,92.5,,Raw,DQ,SBD,NC
Daniel Wright,,M-O,59.87,60,M,-65,-65,-65,,35,40,-42.5,40,77.5,92.5,-102.5,92.5,,Single-ply,DQ,SBD,NC
Daniel Wright,,M-Y,59.87,60,M,-65,-65,-65,,35,40,-42.5,40,77.5,92.5,-102.5,92.5,,Single-ply,DQ,SBD,SC
Daniel Wright,,MR-O,59.87,60,M,-65,-65,-65,,35,40,-42.5,40,77.5,92.5,-102.5,92.5,,Raw,DQ,SBD,NC
Daniel Wright,,MR-Y,59.87,60,M,-65,-65,-65,,35,40,-42.5,40,77.5,92.5,-102.5,92.5,,Raw,DQ,SBD,NC
David Connolly,41,M-O,81.56,82.5,M,-142.5,155,172.5,172.5,115,-132.5,-132.5,115,147.5,165,-182.5,165,452.5,Single-ply,3,SBD,SC
Dylan Smith #15,,M-O,60.55,67.5,M,52.5,57.5,60,60,42.5,-47.5,-52.5,42.5,75,87.5,102.5,102.5,205,Single-ply,6,SBD,NC
Dylan Smith #15,,MR-O,60.55,67.5,M,52.5,57.5,60,60,42.5,-47.5,-52.5,42.5,75,87.5,102.5,102.5,205,Raw,1,SBD,NC
Dylan Smith #15,,MR-Y,60.55,67.5,M,52.5,57.5,60,60,42.5,-47.5,-52.5,42.5,75,87.5,102.5,102.5,205,Raw,1,SBD,NC
Dylan Smith #15,,M-O,60.78,67.5,M,52.5,57.5,60,60,42.5,-47.5,-52.5,42.5,75,87.5,102.5,102.5,205,Single-ply,7,SBD,NC
Dylan Smith #15,,M-Y,60.78,67.5,M,52.5,57.5,60,60,42.5,-47.5,-52.5,42.5,75,87.5,102.5,102.5,205,Single-ply,1,SBD,NC
Dylan Smith #15,,MR-O,60.78,67.5,M,52.5,57.5,60,60,42.5,-47.5,-52.5,42.5,75,87.5,102.5,102.5,205,Raw,2,SBD,NC
Dylan Smith #15,,MR-Y,60.78,67.5,M,52.5,57.5,60,60,42.5,-47.5,-52.5,42.5,75,87.5,102.5,102.5,205,Raw,2,SBD,NC
Edward D. Barker,44,M-O,106.14,110,M,,,,,182.5,192.5,202.5,202.5,,,,,202.5,Single-ply,1,B,NC
Elizer Hinton,,M-O,,125,M,,,,,237.5,247.5,-265,247.5,,,,,247.5,Single-ply,1,B,NC
Eric Edwards,26,MR-O,136.98,125+,M,182.5,192.5,207.5,207.5,132.5,137.5,142.5,142.5,177.5,190,205,205,555,Raw,2,SBD,
Eric Knight,32,M-O,65.77,67.5,M,,,,,160,165,-170,165,,,,,165,Single-ply,1,B,NC
Gabriel Godbey,27,M-O,133.81,125+,M,-182.5,-185,-197.5,,135,142.5,-152.5,142.5,,,,,,Single-ply,DQ,SBD,NC
Gene Blue,68,M-O,74.84,75,M,,,,,70,75,-80,75,,,,,75,Single-ply,1,B,NC
Gene Blue,68,MR-O,74.84,75,M,,,,,70,75,-80,75,,,,,75,Raw,1,B,NC
Gene Blue,68,MR-M3b,74.84,75,M,,,,,70,75,-80,75,,,,,75,Raw,1,B,NC
Gina Benton,32,F-O,55.79,56,F,,,,,77.5,85,90,90,,,,,90,Single-ply,1,B,NC
Glenn Raisin,50,M-O,58.97,60,M,,,,,67.5,-70,70,70,,,,,70,Single-ply,1,B,SC
Glenn Raisin,50,MR-O,58.97,60,M,,,,,67.5,-70,70,70,,,,,70,Raw,1,B,NC
Glenn Raisin,50,MR-M2a,58.97,60,M,,,,,67.5,-70,70,70,,,,,70,Raw,1,B,SC
Grant McCaulley,26,M-O,98.2,100,M,235,257.5,-265,257.5,140,-155,155,155,240,257.5,-265,257.5,670,Single-ply,1,SBD,NC
Jeremy Quick,27,M-O,81.47,82.5,M,125,130,137.5,137.5,107.5,-120,-120,107.5,167.5,180,-185,180,425,Single-ply,4,SBD,NC
Jeremy Quick,27,MR-O,81.47,82.5,M,125,130,137.5,137.5,107.5,-120,-120,107.5,167.5,180,-185,180,425,Raw,1,SBD,NC
Jeremy Quick,27,M-O,81.65,82.5,M,125,130,137.5,137.5,107.5,-120,-120,107.5,167.5,180,-185,180,425,Single-ply,5,SBD,NC
Jeremy Quick,27,MR-O,81.65,82.5,M,125,130,137.5,137.5,107.5,-120,-120,107.5,167.5,180,-185,180,425,Raw,2,SBD,NC
Jimmy Wheaton,29,M-O,74.57,75,M,122.5,-132.5,132.5,132.5,82.5,87.5,-90,87.5,185,187.5,190,190,410,Single-ply,3,SBD,NC
Jimmy Wheaton,29,MR-O,74.57,75,M,122.5,-132.5,132.5,132.5,82.5,87.5,-90,87.5,185,187.5,190,190,410,Raw,1,SBD,NC
JoAnna Wiersma,25,F-O,64.59,67.5,F,40,47.5,-50,47.5,37.5,42.5,-45,42.5,80,85,92.5,92.5,182.5,Single-ply,1,SBD,NC
JoAnna Wiersma,25,FR-O,64.59,67.5,F,40,47.5,-50,47.5,37.5,42.5,-45,42.5,80,85,92.5,92.5,182.5,Raw,1,SBD,NC
John Demchak,39,M-O,89.49,90,M,247.5,260,270,270,165,170,-175,170,250,275,-282.5,275,715,Single-ply,1,SBD,NC
Josh Fey,24,M-O,89.68,90,M,-220,-220,-220,,,,,,,,,,,Single-ply,DQ,SBD,NC
Josh Fey,24,MR-O,89.68,90,M,-220,-220,-220,,,,,,,,,,,Raw,DQ,SBD,NC
Josh Vaughn,25,M-O,118.39,125,M,,,,,210,-217.5,-217.5,210,,,,,210,Single-ply,2,B,SC
Justin Shue,,M-O,50.94,52,M,102.5,107.5,112.5,112.5,67.5,75,-77.5,75,105,115,127.5,127.5,315,Single-ply,2,SBD,NC
Justin Shue,,MR-O,50.94,52,M,102.5,107.5,112.5,112.5,67.5,75,-77.5,75,105,115,127.5,127.5,315,Raw,2,SBD,NC
Justin Shue,,MR-Y,50.94,52,M,102.5,107.5,112.5,112.5,67.5,75,-77.5,75,105,115,127.5,127.5,315,Raw,2,SBD,NC
Justin Shue,,M-O,50.8,52,M,102.5,107.5,112.5,112.5,67.5,75,-77.5,75,105,115,127.5,127.5,315,Single-ply,1,SBD,NC
Justin Shue,,M-Y,50.8,52,M,102.5,107.5,112.5,112.5,67.5,75,-77.5,75,105,115,127.5,127.5,315,Single-ply,1,SBD,NC
Justin Shue,,MR-O,50.8,52,M,102.5,107.5,112.5,112.5,67.5,75,-77.5,75,105,115,127.5,127.5,315,Raw,1,SBD,NC
Justin Shue,,MR-Y,50.8,52,M,102.5,107.5,112.5,112.5,67.5,75,-77.5,75,105,115,127.5,127.5,315,Raw,1,SBD,NC
Kane Sherrill,15,M-O,105.01,110,M,145,155,165,165,92.5,-102.5,102.5,102.5,160,172.5,182.5,182.5,450,Single-ply,2,SBD,NC
Kazden Sherrill,17,M-O,97.52,100,M,160,170,-182.5,170,102.5,107.5,115,115,170,187.5,200,200,485,Single-ply,4,SBD,NC
Kelby Fererro,19,M-O,81.1,82.5,M,62.5,,,62.5,-77.5,77.5,-95,77.5,162.5,180,187.5,187.5,327.5,Single-ply,7,SBD,SC
Kelby Fererro,19,MR-O,81.1,82.5,M,62.5,,,62.5,-77.5,77.5,-95,77.5,162.5,180,187.5,187.5,327.5,Raw,4,SBD,SC
Kelby Fererro,19,MR-T3,81.1,82.5,M,62.5,,,62.5,-77.5,77.5,-95,77.5,162.5,180,187.5,187.5,327.5,Raw,1,SBD,NC
Kevin Locklear,35,M-O,67.22,67.5,M,160,167.5,170,170,150,155,160,160,152.5,157.5,165,165,495,Single-ply,3,SBD,NC
Kevin Locklear,35,M-O,67.13,67.5,M,160,167.5,170,170,150,155,160,160,152.5,157.5,165,165,495,Single-ply,2,SBD,SC
Lee Power,,M-O,80.2,82.5,M,90,-92.5,,90,60,65,-70,65,112.5,120,127.5,127.5,282.5,Single-ply,8,SBD,SC
Lee Power,,MR-O,80.2,82.5,M,90,-92.5,,90,60,65,-70,65,112.5,120,127.5,127.5,282.5,Raw,5,SBD,VA
Lee Power,,MR-Y,80.2,82.5,M,90,-92.5,,90,60,65,-70,65,112.5,120,127.5,127.5,282.5,Raw,1,SBD,NC
Lee Power,,M-O,80.29,82.5,M,90,-92.5,,90,60,65,-70,65,112.5,120,127.5,127.5,282.5,Single-ply,9,SBD,NC
Lee Power,,M-Y,80.29,82.5,M,90,-92.5,,90,60,65,-70,65,112.5,120,127.5,127.5,282.5,Single-ply,1,SBD,NC
Lee Power,,MR-O,80.29,82.5,M,90,-92.5,,90,60,65,-70,65,112.5,120,127.5,127.5,282.5,Raw,6,SBD,NC
Lee Power,,MR-Y,80.29,82.5,M,90,-92.5,,90,60,65,-70,65,112.5,120,127.5,127.5,282.5,Raw,2,SBD,NC
Matt Bouton,23,M-O,127.46,125+,M,,,,,-185,185,190,190,,,,,190,Single-ply,3,B,NC
Matt Bouton,23,MR-O,127.46,125+,M,,,,,-185,185,190,190,,,,,190,Raw,1,B,SC
Micah Zeigler,,M-O,66.68,67.5,M,-67.5,-67.5,-67.5,,50,-52.5,-55,50,75,80,95,95,,Single-ply,DQ,SBD,NC
Micah Zeigler,,MR-O,66.68,67.5,M,-67.5,-67.5,-67.5,,50,-52.5,-55,50,75,80,95,95,,Raw,DQ,SBD,SC
Micah Zeigler,,MR-Y,66.68,67.5,M,-67.5,-67.5,-67.5,,50,-52.5,-55,50,75,80,95,95,,Raw,DQ,SBD,NC
Micah Zeigler,,M-O,66.68,67.5,M,-67.5,-67.5,-67.5,,50,-52.5,-55,50,75,80,95,95,,Single-ply,DQ,SBD,SC
Micah Zeigler,,M-Y,66.68,67.5,M,-67.5,-67.5,-67.5,,50,-52.5,-55,50,75,80,95,95,,Single-ply,DQ,SBD,NC
Micah Zeigler,,MR-O,66.68,67.5,M,-67.5,-67.5,-67.5,,50,-52.5,-55,50,75,80,95,95,,Raw,DQ,SBD,SC
Micah Zeigler,,MR-Y,66.68,67.5,M,-67.5,-67.5,-67.5,,50,-52.5,-55,50,75,80,95,95,,Raw,DQ,SBD,NC
Michael Belk,34,MR-O,124.33,125,M,305,320,-325,320,257.5,262.5,-272.5,262.5,292.5,305,-310,305,887.5,Raw,1,SBD,NC
Micheal Hopkins,19,M-O,85.32,90,M,217.5,227.5,-252.5,227.5,147.5,160,170,170,210,227.5,232.5,232.5,630,Single-ply,3,SBD,NC
Micheal Hopkins,19,MR-O,85.32,90,M,217.5,227.5,-252.5,227.5,147.5,160,170,170,210,227.5,232.5,232.5,630,Raw,2,SBD,NC
Micheal Hopkins,19,MR-T3,85.32,90,M,217.5,227.5,-252.5,227.5,147.5,160,170,170,210,227.5,232.5,232.5,630,Raw,2,SBD,NC
Micheal Hopkins,19,M-O,85.28,90,M,217.5,227.5,-252.5,227.5,147.5,160,170,170,210,227.5,232.5,232.5,630,Single-ply,2,SBD,NC
Micheal Hopkins,19,M-T3,85.28,90,M,217.5,227.5,-252.5,227.5,147.5,160,170,170,210,227.5,232.5,232.5,630,Single-ply,1,SBD,NC
Micheal Hopkins,19,MR-O,85.28,90,M,217.5,227.5,-252.5,227.5,147.5,160,170,170,210,227.5,232.5,232.5,630,Raw,1,SBD,NC
Micheal Hopkins,19,MR-T3,85.28,90,M,217.5,227.5,-252.5,227.5,147.5,160,170,170,210,227.5,232.5,232.5,630,Raw,1,SBD,NC
Micheal Steward,37,M-O,124.28,125,M,,,,,180,-187.5,-230,180,,,,,180,Single-ply,4,B,NC
Mike McCoy,15,M-O,99.7,100,M,172.5,190,-210,190,160,167.5,182.5,182.5,220,242.5,-262.5,242.5,615,Single-ply,2,SBD,
Mike Stanley,42,M-O,74.53,75,M,217.5,230,-240,230,145,152.5,160,160,247.5,265,277.5,277.5,667.5,Single-ply,2,SBD,NC
Mike Stanley,42,M-O,74.39,75,M,217.5,230,-240,230,145,152.5,160,160,247.5,265,277.5,277.5,667.5,Single-ply,1,SBD,NC
Nicholas Miceli,27,M-O,80.47,82.5,M,202.5,-207.5,-207.5,202.5,155,165,-167.5,165,192.5,200,-212.5,200,567.5,Single-ply,2,SBD,NC
Nicholas Miceli,27,M-O,80.29,82.5,M,202.5,-207.5,-207.5,202.5,155,165,-167.5,165,192.5,200,-212.5,200,567.5,Single-ply,1,SBD,NC
Phil Horn,46,M-O,97.52,100,M,,,,,205,,,205,,,,,205,Single-ply,1,B,NC
Phil Horn,46,M-M1,97.52,100,M,,,,,205,,,205,,,,,205,Single-ply,1,B,NC
Randy Price,55,M-O,98.43,100,M,,,,,175,-182.5,-182.5,175,,,,,175,Single-ply,3,B,SC
Robbie Bilancione,21,M-O,66.22,67.5,M,227.5,-242.5,-242.5,227.5,117.5,125,127.5,127.5,237.5,247.5,255,255,610,Single-ply,1,SBD,NC
Sam Warren,25,M-O,60.01,67.5,M,122.5,140,142.5,142.5,115,122.5,-127.5,122.5,160,182.5,-192.5,182.5,447.5,Single-ply,4,SBD,NC
Samuel Whitted,53,M-O,98.43,100,M,,,,,145,152.5,-162.5,152.5,,,,,152.5,Single-ply,4,B,NC
Samuel Whitted,53,MR-O,98.43,100,M,,,,,145,152.5,-162.5,152.5,,,,,152.5,Raw,1,B,NC
Samuel Whitted,53,MR-M2a,98.43,100,M,,,,,145,152.5,-162.5,152.5,,,,,152.5,Raw,1,B,NC
Sarah Miller,16,F-O,59.42,60,F,,,,,50,55,57.5,57.5,,,,,57.5,Single-ply,1,B,NC
Sarah Miller,16,F-T2,59.42,60,F,,,,,50,55,57.5,57.5,,,,,57.5,Single-ply,1,B,NC
Scott Alan Smith,33,M-O,102.06,110,M,250,272.5,-285,272.5,160,170,182.5,182.5,250,272.5,-285,272.5,727.5,Single-ply,1,SBD,NC
Sean Redfern,38,M-O,85.73,90,M,,,,,147.5,157.5,-167.5,157.5,,,,,157.5,Single-ply,1,B,NC
Sean Redfern,38,MR-O,85.73,90,M,,,,,147.5,157.5,-167.5,157.5,,,,,157.5,Raw,1,B,NC
Tammy Walker,38,F-O,74.21,75,F,85,95,102.5,102.5,80,-85,-92.5,80,115,125,-135,125,307.5,Single-ply,1,SBD,NC
Tammy Walker,38,F-O,74.39,75,F,85,95,102.5,102.5,80,-85,-92.5,80,115,125,-135,125,307.5,Single-ply,2,SBD,NC
Tammy Walker,38,FR-O,74.39,75,F,85,95,102.5,102.5,80,-85,-92.5,80,115,125,-135,125,307.5,Raw,1,SBD,NC
Thad Benefield,31,M-O,123.06,125,M,-277.5,277.5,282.5,282.5,200,,,200,,,,,,Single-ply,DQ,SBD,NC
Todd Shelton,37,M-O,96.62,100,M,,,,,187.5,195,200,200,,,,,200,Single-ply,2,B,NC
Tom Acker,52,M-O,98.84,100,M,170,-185,185,185,125,-135,-137.5,125,205,215,,215,525,Single-ply,3,SBD,NC
Toni Warrick,37,F-O,70.03,75,F,60,75,87.5,87.5,32.5,40,47.5,47.5,100,112.5,120,120,255,Single-ply,3,SBD,SC
Toni Warrick,37,FR-O,70.03,75,F,60,75,87.5,87.5,32.5,40,47.5,47.5,100,112.5,120,120,255,Raw,2,SBD,NC
