Place,Name,Sex,Event,Division,WeightClassKg,Equipment,BirthYear,Team,State,BodyweightKg,Squat1Kg,Squat2Kg,Squat3Kg,Best3SquatKg,Bench1Kg,Bench2Kg,Bench3Kg,Best3BenchKg,Deadlift1Kg,Deadlift2Kg,Deadlift3Kg,Best3DeadliftKg,TotalKg,Age,BirthDate
1,Deborah Guerra,F,B,FR-M2b,72,Raw,1964,,TX,68.52,,,,,57.5,60,-62.5,60,,,,,60,,
1,Alexis Walker,F,B,FR-O,84+,Raw,1995,,TX,130.82,,,,,102.5,107.5,110,110,,,,,110,,
1,Laney Bennett,F,B,FR-Y2,52,Raw,2008,,TX,51.5,,,,,20,22.5,25,25,,,,,25,,
1,Mike Settles,M,B,M-M4b,83,Single-ply,1944,,TX,82.2,,,,,120,122.5,125,125,,,,,125,,
1,Brad Bennett,M,B,M-O,120+,Single-ply,1982,,TX,132.5,,,,,182.5,-187.5,-187.5,182.5,,,,,182.5,,
1,Dennis Alba,M,B,MR-M2b,74,Raw,1961,,TX,72.9,,,,,-142.5,142.5,149.5,149.5,,,,,149.5,,
1,William Nadzak,M,B,MR-M4a,105,Raw,1949,,TX,104,,,,,147.5,155,-160,155,,,,,155,,
1,Nicholas Sarratt,M,B,MR-O,105,Raw,1988,,TX,95,,,,,155,-165,-165,155,,,,,155,,
1,Valente Inniss-Thompson,M,B,MR-O,120,Raw,1985,,TX,119,,,,,202.5,-207.5,-207.5,202.5,,,,,202.5,,
2,Ryan Mercado,M,B,MR-O,120,Raw,1993,,TX,110.6,,,,,142.5,147.5,,147.5,,,,,147.5,,
1,Tyler McCoy,M,B,MR-Y3,83,Raw,2005,,TX,74.6,,,,,-92.5,92.5,-95,92.5,,,,,92.5,,
1,Alexis Walker,F,D,FR-O,84+,Raw,1995,,TX,130.82,,,,,,,,,187.5,197.5,207.5,207.5,207.5,,
1,Laney Bennett,F,D,FR-Y2,52,Raw,2008,,TX,51.5,,,,,,,,,37.5,42.5,47.5,47.5,47.5,,
1,Isabel Olivarez,F,D,FR-Y3,63,Raw,2005,,TX,57.15,,,,,,,,,-97.5,97.5,105,105,105,,
1,Deana Rodriguez,F,SBD,FR-C,63,Raw,1996,UTSA Roadrunner Powerlifting,TX,61.51,50,60,65,65,32.5,-35,-35,32.5,65,70,75,75,172.5,,
1,Frida De La Peña Lopez,F,SBD,FR-C,72,Raw,1997,UTSA Roadrunner Powerlifting,TX,69,115,125,132.5,132.5,77.5,82.5,-85,82.5,142.5,150,152.5,152.5,367.5,,
1,Mireya Fernandez,F,SBD,FR-Jr,43,Raw,1998,,TX,42.23,82.5,-87.5,87.5,87.5,40,45,-47.5,45,90,95,100,100,232.5,,
1,Betram Nguyen,F,SBD,FR-Jr,52,Raw,1997,,TX,51.07,80,85,90,90,37.5,40,45,45,92.5,97.5,102.5,102.5,237.5,,
1,Kendall Luz,F,SBD,FR-Jr,57,Raw,1998,,TX,56.8,112.5,117.5,-122.5,117.5,67.5,-72.5,-72.5,67.5,117.5,122.5,130,130,315,,
1,Samantha Corral,F,SBD,FR-Jr,84,Raw,1996,,TX,82.6,115,-122.5,125,125,60,-62.5,62.5,62.5,122.5,-130,132.5,132.5,320,,
1,Yolanda Feagins,F,SBD,FR-M1b,84+,Raw,1974,,TX,97.58,102.5,117.5,-125,117.5,60,62.5,-67.5,62.5,137.5,142.5,-145,142.5,322.5,,
DQ,Jessica Olivares,F,SBD,FR-O,47,Raw,1993,,TX,42.1,65,72.5,77.5,77.5,-42.5,-45,-45,,87.5,97.5,102.5,102.5,,,
1,Victoria Martinez #1,F,SBD,FR-O,52,Raw,1994,Team Titan,TX,51.89,117.5,125,-130,125,75,80,-82.5,80,142.5,145,152.5,152.5,357.5,,
1,Angelina Hong,F,SBD,FR-O,57,Raw,1995,,TX,55.7,87.5,95,102.5,102.5,92.5,100,-108,100,130,137.5,-142.5,137.5,340,,
1,Keyanna Paige,F,SBD,FR-O,63,Raw,1994,,TX,62.93,127.5,132.5,137.5,137.5,77.5,82.5,-90,82.5,165,-172.5,172.5,172.5,392.5,,
2,Crystal Vega,F,SBD,FR-O,63,Raw,1993,,TX,61.7,65,80,87.5,87.5,32.5,37.5,-40,37.5,105,112.5,-122.5,112.5,237.5,,
1,Amanda Chalk,F,SBD,FR-O,72,Raw,1984,,TX,70.7,-125,-132.5,132.5,132.5,65,67.5,-72.5,67.5,142.5,152.5,160,160,360,,
1,Megan Martin #1,F,SBD,FR-O,84,Raw,1985,,TX,78.56,120,125,-127.5,125,62.5,65,-67.5,65,125,132.5,137.5,137.5,327.5,,
1,Alexis Walker,F,SBD,FR-O,84+,Raw,1995,,TX,130.82,187.5,197.5,-205,197.5,102.5,107.5,110,110,187.5,197.5,207.5,207.5,515,,
2,Kila Hartom,F,SBD,FR-O,84+,Raw,1994,,TX,87.08,-122.5,122.5,-130,122.5,67.5,72.5,-75,72.5,152.5,-157.5,157.5,157.5,352.5,,
1,Analia Aquino,F,SBD,FR-T1,52,Raw,2004,,TX,49.53,52.5,-75,-75,52.5,45,50,-55,50,85,90,92.5,92.5,195,,
1,Jalyssa Garcia,F,SBD,FR-T1,84+,Raw,2004,,TX,119.3,85,-102.5,-102.5,85,42.5,52.5,-55,52.5,110,122.5,127.5,127.5,265,,
2,Faith Fisher,F,SBD,FR-T1,84+,Raw,2004,,TX,87.69,92.5,105,107.5,107.5,42.5,47.5,-50,47.5,-87.5,87.5,105,105,260,,
1,Liszette Ortiz-Rosado,F,SBD,FR-T2,52,Raw,2001,,TX,51.86,100,112.5,-120,112.5,77.5,-82.5,85,85,110,120,-137.5,120,317.5,,
1,Gabrielle Brown,F,SBD,FR-T2,72,Raw,2001,,TX,69.38,102.5,105,110,110,57.5,-62.5,-67.5,57.5,125,130,-140,130,297.5,,
1,Marissa Olvera,F,SBD,FR-T3,63,Raw,2001,,TX,62.94,117.5,130,-137.5,130,60,65,-67.5,65,125,137.5,-142.5,137.5,332.5,,
2,Alyssa Gonzales,F,SBD,FR-T3,63,Raw,2000,,TX,58.56,-45,45,-47.5,45,27.5,-32.5,-32.5,27.5,45,50,55,55,127.5,,
1,Savannah Bronstad,F,SBD,FR-T3,72,Raw,2000,,TX,70.44,92.5,-107.5,-115,92.5,47.5,55,-60,55,102.5,112.5,125,125,272.5,,
1,Laney Bennett,F,SBD,FR-Y2,52,Raw,2008,,TX,51.5,25,-27.5,27.5,27.5,20,22.5,25,25,37.5,42.5,47.5,47.5,100,,
1,Rosita Driscoll,F,SBD,FR-Y3,57,Raw,2006,,TX,52.72,60,62.5,65,65,35,37.5,40,40,67.5,72.5,77.5,77.5,182.5,,
DQ,Isabel Olivarez,F,SBD,FR-Y3,63,Raw,2005,,TX,57.15,92.5,-102.5,-102.5,92.5,-1,,,,-97.5,97.5,105,105,,,
1,Savannah Zuniga,F,SBD,F-T1,63,Single-ply,2004,,TX,61.85,122.5,142.5,-152.5,142.5,47.5,52.5,57.5,57.5,120,142.5,147.5,147.5,347.5,,
1,Sergio Hernandez,M,SBD,M-O,120+,Single-ply,2002,,TX,154.9,260,-272.5,,260,142.5,150,155,155,215,227.5,235,235,650,,
DQ,Dylan Hatfield,M,SBD,M-O,120+,Single-ply,2000,,TX,129.3,-300,-300,-300,,-145,185,-190,185,-237.5,-237.5,-237.5,,,,
1,Michael Rodriguez #13,M,SBD,M-M2b,74,Single-ply,1961,,TX,73.7,-170,-175,180,180,-110,112.5,-127.5,112.5,195,-207.5,207.5,207.5,500,,
1,Duane Bartolet,M,SBD,M-M3b,93,Single-ply,1953,,TX,90.7,177.5,190,-205,190,100,105,107.5,107.5,182.5,197.5,212.5,212.5,510,,
1,Michael Rodriguez #13,M,SBD,M-MO,74,Single-ply,1961,,TX,73.7,-170,-175,180,180,-110,112.5,-127.5,112.5,195,-207.5,207.5,207.5,500,,
1,Richard Peña Jr,M,SBD,M-O,105,Single-ply,1994,,TX,94.3,282.5,295,305,305,202.5,210,217.5,217.5,212.5,227.5,-245,227.5,750,,
DQ,Khanthanou Phengphongsavan,M,SBD,M-O,120,Single-ply,1982,,OK,114.8,-290,-297.5,-297.5,,,,,,,,,,,,
1,John Serrano,M,SBD,MR-MO,66,Raw,1992,,MS,65.3,142.5,152.5,157.5,157.5,102.5,-107.5,-107.5,102.5,165,175,182.5,182.5,442.5,,
1,Mike Sutton,M,SBD,MR-MO,120,Raw,1994,,TX,119.8,255,267.5,-270,267.5,160,-167.5,-167.5,160,-267.5,280,-293,280,707.5,,
1,Gabriel Soto,M,SBD,MR-C,66,Raw,1999,UTSA Roadrunner Powerlifting,TX,66,170,177.5,182.5,182.5,102.5,107.5,112.5,112.5,182.5,190,195,195,490,,
1,Jovan Baez,M,SBD,MR-C,74,Raw,1996,UTSA Roadrunner Powerlifting,TX,74,205,-215,227.5,227.5,135,140,147.5,147.5,192.5,207.5,215,215,590,,
2,Joshua Howard,M,SBD,MR-C,74,Raw,2000,,TX,70.9,187.5,195,205,205,120,125,127.5,127.5,220,227.5,-235,227.5,560,,
1,Santiago Ramirez,M,SBD,MR-C,93,Raw,1997,UTSA Roadrunner Powerlifting,TX,86.6,200,215,,215,122.5,127.5,135,135,265,285,-305,285,635,,
2,Devyn Hebbe,M,SBD,MR-C,93,Raw,1997,,TX,91,225,237.5,245,245,112.5,120,-125,120,232.5,240,247.5,247.5,612.5,,
3,Oskar Timm,M,SBD,MR-C,93,Raw,1999,,TX,91.1,190,200,205,205,120,-125,-125,120,190,197.5,-202.5,197.5,522.5,,
1,Wilson Chen,M,SBD,MR-Jr,74,Raw,1996,,TX,73.3,190,202.5,212.5,212.5,127.5,135,-140,135,232.5,245,-255,245,592.5,,
2,David Garcia #2,M,SBD,MR-Jr,74,Raw,1995,,TX,72.6,180,185,190,190,125,127.5,-130,127.5,230,237.5,250,250,567.5,,
3,Christopher Tran #4,M,SBD,MR-Jr,74,Raw,1998,UTSA Roadrunner Powerlifting,TX,71.7,115,130,142.5,142.5,65,75,85,85,145,170,182.5,182.5,410,,
1,Daniel Ramirez,M,SBD,MR-Jr,83,Raw,1998,,TX,80.4,150,155,157.5,157.5,102.5,105,107.5,107.5,160,162.5,167.5,167.5,432.5,,
1,Asa Meyer,M,SBD,MR-Jr,93,Raw,1998,,TX,92.8,175,-180,185,185,105,110,-115,110,220,230,-240,230,525,,
1,Raphel Watson,M,SBD,MR-Jr,105,Raw,1997,,TX,104.8,250,260,-267.5,260,177.5,185,187.5,187.5,275,282.5,-290,282.5,730,,
2,Tristan Watson,M,SBD,MR-Jr,105,Raw,1997,,TX,102.1,210,227.5,-232.5,227.5,147.5,157.5,-162.5,157.5,230,242.5,250,250,635,,
3,Victor Perez,M,SBD,MR-Jr,105,Raw,1995,,TX,99.5,195,-200,205,205,145,155,-165,155,200,-205,-205,200,560,,
4,Enrique Ascona,M,SBD,MR-Jr,105,Raw,1995,,TX,100.6,160,170,177.5,177.5,102.5,107.5,112.5,112.5,172.5,182.5,187.5,187.5,477.5,,
1,Aric Moncada,M,SBD,MR-Jr,120+,Raw,1996,,OK,143.9,-150,180,200,200,190,205,-215,205,200,230,-275,230,635,,
1,Timothy Lamando,M,SBD,MR-M1a,83,Raw,1979,,TX,82.2,205,217.5,222.5,222.5,140,-147.5,-150,140,240,255,-262.5,255,617.5,,
1,Dan Mallard,M,SBD,MR-M1a,105,Raw,1975,,TX,102.8,205,215,225,225,120,127.5,-135,127.5,205,215,220,220,572.5,,
1,Marco Gonzalez,M,SBD,MR-M1b,93,Raw,1972,,TX,91.7,192.5,205,210,210,137.5,150,157.5,157.5,197.5,210,225,225,592.5,,
1,Sean Berry,M,SBD,MR-M1b,120,Raw,1972,,TX,113.4,215,-227.5,227.5,227.5,125,-135,,125,227.5,260,-272.5,260,612.5,,
2,James Morris #2,M,SBD,MR-M2a,120,Raw,1969,,TX,112.7,-70,-80,85,85,125,135,-145,135,180,190,202.5,202.5,422.5,,
1,Duane Madere,M,SBD,MR-M2b,74,Raw,1962,,TX,73,192.5,-200,202.5,202.5,125,130,-132.5,130,220,225,232.5,232.5,565,,
1,Duane Young,M,SBD,MR-M2b,83,Raw,1960,,TX,78.6,132.5,137.5,142.5,142.5,87.5,95,100,100,167.5,177.5,190,190,432.5,,
1,David Berube,M,SBD,MR-O,59,Raw,1991,,TX,59,75,77.5,-90,77.5,55,62.5,67.5,67.5,107.5,115,120,120,265,,
1,Joseph Songco,M,SBD,MR-O,66,Raw,1991,,TX,66,82.5,90,97.5,97.5,80,92.5,95,95,137.5,147.5,160,160,352.5,,
1,Eddie Suarez,M,SBD,MR-O,74,Raw,1994,,TX,70.4,200,215,-222.5,215,137.5,150,-157.5,150,222.5,-227.5,,222.5,587.5,,
2,Duane Madere,M,SBD,MR-O,74,Raw,1962,,TX,73,192.5,-200,202.5,202.5,125,130,-132.5,130,220,225,232.5,232.5,565,,
3,Christopher Ortiz,M,SBD,MR-O,74,Raw,1993,,TX,72,147.5,167.5,-182.5,167.5,-95,102.5,107.5,107.5,175,190,202.5,202.5,477.5,,
1,Timothy Lamando,M,SBD,MR-O,83,Raw,1979,,TX,82.2,205,217.5,222.5,222.5,140,-147.5,-150,140,240,255,-262.5,255,617.5,,
2,John Tong,M,SBD,MR-O,83,Raw,1996,,TX,80,200,207.5,217.5,217.5,127.5,137.5,140,140,212.5,222.5,232.5,232.5,590,,
3,Rafael Rositas,M,SBD,MR-O,83,Raw,1991,,TX,78.3,-140,152.5,165,165,-120,127.5,-135,127.5,185,197.5,207.5,207.5,500,,
4,Javier Rodriguez,M,SBD,MR-O,83,Raw,1996,,TX,79.9,142.5,150,157.5,157.5,-105,115,117.5,117.5,170,190,195,195,470,,
1,Hunter Holtshopple,M,SBD,MR-O,93,Raw,1988,,TX,92.7,205,217.5,227.5,227.5,125,132.5,-137.5,132.5,250,265,275,275,635,,
2,Peter La,M,SBD,MR-O,93,Raw,1992,,TX,91,187.5,197.5,207.5,207.5,142.5,152.5,160,160,212.5,235,-247.5,235,602.5,,
3,Marco Gonzalez,M,SBD,MR-O,93,Raw,1972,,TX,91.7,192.5,205,210,210,137.5,150,157.5,157.5,197.5,210,225,225,592.5,,
4,Jerron Stacy,M,SBD,MR-O,93,Raw,1989,,TX,85.4,125,130,137.5,137.5,92.5,-95,-97.5,92.5,-137.5,142.5,152.5,152.5,382.5,,
1,Raphel Watson,M,SBD,MR-O,105,Raw,1997,,TX,104.8,250,260,-267.5,260,177.5,185,187.5,187.5,275,282.5,-290,282.5,730,,
2,Frank Martin,M,SBD,MR-O,105,Raw,1983,,TX,97,207.5,217.5,-227.5,217.5,132.5,137.5,142.5,142.5,235,242.5,-255,242.5,602.5,,
DQ,Jeremy Beames,M,SBD,MR-O,105,Raw,1990,,UT,105,-165,-165,-165,,-125,-125,-125,,187.5,-190,-190,187.5,,,
1,Valente Inniss-Thompson,M,SBD,MR-O,120,Raw,1985,,TX,119,220,230,235,235,202.5,-207.5,-207.5,202.5,270,277.5,282.5,282.5,720,,
2,Mike Sutton,M,SBD,MR-O,120,Raw,1994,,TX,119.8,255,267.5,-270,267.5,160,-167.5,-167.5,160,-267.5,280,-293,280,707.5,,
3,Simeon Hendrix,M,SBD,MR-O,120,Raw,1980,,TX,116.1,175,180,-195,180,142.5,147.5,152.5,152.5,190,202.5,210,210,542.5,,
4,Eric Guzman,M,SBD,MR-O,120,Raw,1986,,TX,120,-170,-170,170,170,-135,135,-140,135,190,-197.5,197.5,197.5,502.5,,
1,Joshua Longoria,M,SBD,MR-O,120+,Raw,1995,,TX,131,275,282.5,287.5,287.5,182.5,192.5,-200,192.5,275,290,295,295,775,,
1,An'Dre Feagins,M,SBD,MR-T1,74,Raw,2003,,TX,71.3,62.5,102.5,-117.5,102.5,55,60,62.5,62.5,102.5,125,-142.5,125,290,,
1,Aidan Cusack,M,SBD,MR-T2,53,Raw,2001,,TX,52.7,-137.5,-137.5,137.5,137.5,82.5,85,-96,85,137.5,-140,-140,137.5,360,,
1,Julian Pardo,M,SBD,MR-T3,74,Raw,2000,,TX,68.2,125,-130,142.5,142.5,115,-122.5,-122.5,115,155,170,177.5,177.5,435,,
1,Nicolas Cuadra Armida,M,SBD,MR-T3,83,Raw,2001,,TX,82.7,-175,177.5,182.5,182.5,112.5,-117.5,120,120,207.5,222.5,-227.5,222.5,525,,
2,Samuel Ozuna,M,SBD,MR-T3,83,Raw,2000,,TX,76.9,145,155,-165,155,-80,80,85,85,150,165,-175,165,405,,
1,Blake Bennett,M,SBD,MR-T3,93,Raw,1999,,TX,91.3,192.5,202.5,215,215,120,127.5,-137.5,127.5,230,242.5,257.5,257.5,600,,
2,Jackson Gregory,M,SBD,MR-T3,93,Raw,1999,,TX,88.5,150,165,177.5,177.5,90,97.5,-105,97.5,165,185,-192.5,185,460,,
1,Joevani Martinez,M,SBD,MR-Y2,30,Raw,2008,,TX,30,32.5,40,45.5,45.5,20,22.5,26.5,26.5,52.5,55,62.5,62.5,134.5,,
1,Ty Denges,M,SBD,MR-Y3,74,Raw,2006,,TX,66.3,72.5,90,-92.5,90,40,47.5,-50,47.5,90,100,-112.5,100,237.5,,
1,Keegan Garcia,M,SBD,MR-Y3,120,Raw,2006,,TX,106.2,112.5,137.5,145,145,42.5,57.5,-62.5,57.5,132.5,-155,155,155,357.5,,
1,Oscar Mercado,M,SBD,M-T1,66,Single-ply,2003,,TX,64.8,150,170,177.5,177.5,-85,85,-100,85,160,172.5,175,175,437.5,,
1,Gilbert Arriaga,M,SBD,M-T2,105,Single-ply,2002,,TX,104.4,242.5,260,275,275,155,165,-177.5,165,255,275,292.5,292.5,732.5,,
1,Austin Gonzalez,M,SBD,M-T3,66,Single-ply,2000,,TX,62.1,152.5,162.5,-172.5,162.5,107.5,112.5,-117.5,112.5,157.5,170,-182.5,170,445,,
1,Susan Townsend,F,BD,FR-M3b,84+,Raw,1950,,TX,90.02,,,,,27.5,30,37.5,37.5,70,82.5,-85,82.5,120,,
1,Logan Murski,M,BD,MR-Jr,105,Raw,1997,,TX,100.2,,,,,117.5,122.5,-127.5,122.5,-212.5,212.5,-230,212.5,335,,
1,Duane Young,M,BD,MR-M2b,83,Raw,1960,,TX,78.6,,,,,87.5,95,100,100,167.5,177.5,190,190,290,,
1,Valente Inniss-Thompson,M,BD,MR-O,120,Raw,1985,,TX,119,,,,,202.5,-207.5,-207.5,202.5,270,277.5,282.5,282.5,485,,
1,An'Dre Feagins,M,BD,MR-T1,74,Raw,2003,,TX,71.3,,,,,55,60,62.5,62.5,102.5,125,-142.5,125,187.5,,
1,Ty Denges,M,BD,MR-Y3,74,Raw,2006,,TX,66.3,,,,,40,47.5,-50,47.5,90,100,-112.5,100,147.5,,
