Place,Sex,Name,Event,Division,WeightClassKg,Equipment,BirthDate,BirthYear,State,BodyweightKg,Squat1Kg,Squat2Kg,Squat3Kg,Best3SquatKg,Bench1Kg,Bench2Kg,Bench3Kg,Best3BenchKg,Deadlift1Kg,Deadlift2Kg,Deadlift3Kg,Best3DeadliftKg,TotalKg
1,M,Xaviar Clark,B,M-O,59,Single-ply,,1989,TX,58.4,,,,,-125,125,-137.5,125,,,,,125
1,M,Patrick Magpayo,B,M-O,105,Single-ply,,1981,TX,104.8,,,,,330,-332.5,-337.5,330,,,,,330
DQ,M,Martin Feyes,B,MR-Jr,66,Raw,,1994,FL,64.9,,,,,-102.5,-102.5,-102.5,,,,,,
1,M,Matthew Fazio,B,MR-Jr,93,Raw,,1993,MO,92.4,,,,,142.5,150,-157.5,150,,,,,150
1,M,Warren Norris,B,MR-M2,120+,Raw,,2000,TX,168.6,,,,,140,-155,160,160,,,,,160
1,M,Quentin Myers,B,MR-O,66,Raw,,1986,TX,66,,,,,137.5,142.5,145,145,,,,,145
1,F,Kimberly Pfeiffer,B,FR-O,84+,Raw,,2000,TX,128.1,,,,,62.5,65,-70,65,,,,,65
2,F,Kimberly Pfeiffer,B,FR-O,84+,Raw,,2000,,128.1,,,,,62.5,65,-70,65,,,,,65
1,M,Chris Soliz,D,M-M2,83,Single-ply,,2000,TX,83,,,,,,,,,-205,207.5,212.5,212.5,212.5
1,M,Stephen Turner,D,MR-Y3,74,Raw,,2003,TX,69.7,,,,,,,,,100,105,115,115,115
1,F,April Rodriguez,D,F-Jr,84,Single-ply,,2000,,83.6,,,,,,,,,90,97.5,-105,97.5,97.5
2,F,April Rodriguez,D,F-Jr,84,Single-ply,,2000,TX,83.6,,,,,,,,,90,97.5,-105,97.5,97.5
1,F,Janay Holland,D,FR-O,47,Raw,,2000,,41.6,,,,,,,,,92.5,107.5,-110,107.5,107.5
2,F,Janay Holland,D,FR-O,47,Raw,,2000,TX,41.6,,,,,,,,,92.5,107.5,-110,107.5,107.5
DQ,M,Jacob R Palomares,SBD,M-Jr,83,Single-ply,,1995,TX,82.2,-225,-225,-225,,,,,,,,,,
1,M,Taner Renfro,SBD,M-Jr,105,Single-ply,,1996,TX,103.7,272.5,282.5,292.5,292.5,147.5,162.5,-182.5,162.5,227.5,250,-262.5,250,705
1,M,Matt Dial,SBD,M-M1,105,Single-ply,,1976,TX,101.5,175,-190,190,190,165,-175,-175,165,185,202.5,212.5,212.5,567.5
1,M,Matthew Moseley,SBD,M-M1,120,Single-ply,,1974,TX,116.8,-110,110,115,115,95,-100,-100,95,150,-152.5,-152.5,150,360
1,M,Derick Miller,SBD,M-M1,120+,Single-ply,,1970,TX,140,175,195,215,215,152.5,155,157.5,157.5,260,275,-282.5,275,647.5
1,M,Barron Henderson,SBD,MR-M1,120,Raw,,1976,FL,119.7,330,355,-370,355,170,-180,-180,170,280,300,-312.5,300,825
DQ,M,Greg NeSmith,SBD,M-O,83,Single-ply,,1988,TX,82.9,165,185,-202.5,185,-117.5,-132.5,-142.5,,220,235,-252.5,235,
1,M,Aaron Le,SBD,MR-Jr,66,Raw,,1996,TX,65.7,145,152.5,162.5,162.5,105,112.5,-122.5,112.5,147.5,157.5,167.5,167.5,442.5
2,M,Amish Menon,SBD,MR-Jr,66,Raw,,1993,TX,62.1,92.5,102.5,120,120,82.5,92.5,-97.5,92.5,142,167.5,182.5,182.5,395
DQ,M,Jeffrey Ordonez,SBD,MR-Jr,66,Raw,,1994,TX,65,-147.5,-147.5,-147.5,,105,110,115,115,130,145,-182.5,145,
1,M,Austin Burnett,SBD,MR-Jr,74,Raw,,1993,TX,72.7,165,180,-185,180,110,-112.5,-112.5,110,222.5,-237.5,-237.5,222.5,512.5
2,M,Tuan Nguyen #4,SBD,MR-Jr,74,Raw,,1981,TX,72.4,152.5,162.5,167.5,167.5,105,112.5,120,120,187,197.5,202.5,202.5,490
3,M,Alejandro Correa,SBD,MR-Jr,74,Raw,,1994,FL,70.9,152.5,-167.5,-170,152.5,112.5,125,127.5,127.5,192.5,207.5,-222.5,207.5,487.5
4,M,Matthew Willis,SBD,MR-Jr,74,Raw,,1994,TX,73.7,150,157.5,167.5,167.5,97.5,105,110,110,195,210,-225,210,487.5
5,M,Xavier Lopez,SBD,MR-Jr,74,Raw,,1995,TX,69.6,150,165,-172.5,165,-102.5,107.5,-112.5,107.5,190,205,212.5,212.5,485
6,M,Tuan Nguyen #4,SBD,MR-Jr,74,Raw,,1981,TX,72.4,152.5,162.5,167.5,167.5,105,112.5,120,120,187.5,197.5,-202.5,197.5,485
1,M,Devyn Hebbe,SBD,MR-Jr,83,Raw,,1997,TX,79.8,207.5,217.5,-227.5,217.5,100,112.5,-117.5,112.5,212.5,225,235,235,565
2,M,Garett Sosa,SBD,MR-Jr,83,Raw,,1993,TX,81.2,177.5,190,-202.5,190,122.5,127.5,132.5,132.5,235,242.5,-255,242.5,565
3,M,Daniel Shulhan,SBD,MR-Jr,83,Raw,,1995,TX,81.5,170,182.5,190,190,110,117.5,-125,117.5,232.5,247.5,-257.5,247.5,555
4,M,Ivan Filipovic,SBD,MR-Jr,83,Raw,,1994,TX,82.8,165,172.5,185,185,110,-117.5,-122.5,110,205,217.5,-227.5,217.5,512.5
5,M,Moises Amador,SBD,MR-Jr,83,Raw,,1993,TX,80.3,150,162.5,167.5,167.5,-112.5,125,-130,125,202.5,-210,-210,202.5,495
DQ,M,Joe Zuniga,SBD,MR-Jr,83,Raw,,1994,TX,79.6,157.5,165,172.5,172.5,-110,-110,-110,,200,207.5,215,215,
1,M,Magruilio Salcedo,SBD,MR-Jr,93,Raw,,1994,TX,92.3,220,235,250,250,125,140,-147.5,140,205,222.5,240,240,630
2,M,Paul Johnson #2,SBD,MR-Jr,93,Raw,,1995,TX,92.2,182.5,197.5,205,205,-107.5,115,-122.5,115,210,227.5,-230,227.5,547.5
3,M,Felipe Santiago Rocha,SBD,MR-Jr,93,Raw,,1996,TX,91.5,167.5,177.5,185,185,110,120,125,125,200,210,220,220,530
1,M,Joshua D Korte,SBD,MR-Jr,105,Raw,,1996,FL,97.2,165,-175,-182.5,165,-120,120,-130,120,205,-215,-227.5,205,490
1,M,Johnny May,SBD,MR-M1,83,Raw,,1968,TX,81.7,197.5,210,217.5,217.5,152.5,160,-165,160,205,215,-220,215,592.5
1,M,Gerard Odulio,SBD,MR-M1,93,Raw,,1970,TX,92.4,160,175,-182.5,175,125,135,142.5,142.5,165,185,190,190,507.5
1,M,Randy Pocowatchit,SBD,MR-M1,105,Raw,,1973,TX,100.2,165,175,180,180,115,117.5,125,125,185,192.5,205,205,510
1,M,Craig D Berkowitz,SBD,MR-M2,93,Raw,,1964,TX,90.3,-215,215,-227.5,215,115,120,-127.5,120,217.5,227.5,-245,227.5,562.5
1,M,Michael Hafenbrack,SBD,MR-O,66,Raw,,1984,TX,65.3,200,210,217.5,217.5,122.5,130,-132.5,130,232.5,242.5,252.5,252.5,600
1,M,Chris Nelson #1,SBD,MR-O,74,Raw,1979-02-20,,TX,73,160,167.5,-175,167.5,122.5,-132.5,-132.5,122.5,210,220,227.5,227.5,517.5
2,M,Nathan Snyder,SBD,MR-O,74,Raw,,1989,TX,73.5,152.5,162.5,172.5,172.5,110,115,120,120,182.5,195,200,200,492.5
3,M,Francisco Garibaldi,SBD,MR-O,74,Raw,,1979,TX,73.3,130,137.5,142.5,142.5,102.5,107.5,-112.5,107.5,135,147.5,157.5,157.5,407.5
1,M,Calvin Hovsepian,SBD,MR-O,83,Raw,,1991,TX,81.5,190,202.5,207.5,207.5,115,122.5,-127.5,122.5,200,215,225,225,555
2,M,Leith Waithe,SBD,MR-O,83,Raw,,1992,TX,81.8,175,185,187.5,187.5,117.5,122.5,127.5,127.5,220,230,240,240,555
3,M,Clayton Collins,SBD,MR-O,83,Raw,,1989,TX,82,147.5,157.5,167.5,167.5,132.5,142.5,-147.5,142.5,192.5,202.5,212.5,212.5,522.5
4,M,Darryl Womack,SBD,MR-O,83,Raw,,1983,TX,82.3,165,170,175,175,102.5,107.5,112.5,112.5,205,215,222.5,222.5,510
5,M,Nicholas Swisher,SBD,MR-O,83,Raw,,1998,TX,75.7,165,177.5,-185,177.5,86,95,100,100,192.5,207.5,220,220,497.5
6,M,Jeremy Nguyen,SBD,MR-O,83,Raw,,1991,TX,76.8,150,162.5,172.5,172.5,100,110,115,115,187.5,200,210,210,497.5
7,M,Peter Sourygnavong,SBD,MR-O,83,Raw,,1987,TX,80.3,152.5,157.5,165,165,92.5,97.5,102.5,102.5,185,192.5,-200,192.5,460
8,M,Ben Mak,SBD,MR-O,83,Raw,,1990,TX,77.5,152.5,165,172.5,172.5,70,77.5,85,85,160,182.5,197.5,197.5,455
9,M,Jason Turnwald,SBD,MR-O,83,Raw,,1991,TX,77.5,132.5,140,150,150,95,102.5,-110,102.5,167.5,177.5,202.5,202.5,455
1,M,Chance Mitchell,SBD,MR-O,93,Raw,,1994,TX,92.7,252.5,265,277.5,277.5,150,160,162.5,162.5,292.5,307.5,320,320,760
2,M,Abraham Assi,SBD,MR-O,93,Raw,,1992,TX,90.5,170,180,190,190,125,135,-137.5,135,205,217.5,230,230,555
3,M,William Sandoval,SBD,MR-O,93,Raw,,1992,TX,91.1,-167.5,167.5,185,185,125,-132.5,132.5,132.5,207.5,230,-242.5,230,547.5
4,M,Michael Luther,SBD,MR-O,93,Raw,,1996,TX,88.3,180,190,-200,190,110,117.5,-125,117.5,205,217.5,-227.5,217.5,525
5,M,Johnathan Smith,SBD,MR-O,93,Raw,,1990,TX,91.3,170,182.5,-192.5,182.5,-122.5,122.5,140,140,170,182.5,200,200,522.5
6,M,Bryan Watson,SBD,MR-O,93,Raw,,1984,TX,91.9,-155,155,-165,155,140,145,150,150,190,205,215,215,520
7,M,Daniel Clanton,SBD,MR-O,93,Raw,,1990,TX,85.3,-162.5,162.5,170,170,112.5,115,-117.5,115,220,227.5,230,230,515
8,M,Chance King,SBD,MR-O,93,Raw,,1992,TX,91.8,175,182.5,-192.5,182.5,-105,107.5,-112.5,107.5,187.5,195,202.5,202.5,492.5
9,M,Curt St. Romain,SBD,MR-O,93,Raw,,1977,TX,91,110,130,150,150,135,-150,-150,135,170,182.5,187.5,187.5,472.5
10,M,Ken Trader,SBD,MR-O,93,Raw,,1990,TX,85.3,130,140,-150,140,90,100,-107.5,100,165,180,-192.5,180,420
1,M,Ben Hill,SBD,MR-O,105,Raw,,1990,MO,100.8,185,205,227.5,227.5,105,115,-130,115,225,265,-287.5,265,607.5
1,M,Brandon Woodson,SBD,MR-O,120,Raw,,1988,TX,110.4,265,277.5,-287.5,277.5,170,180,-187.5,180,285,300,-305,300,757.5
2,M,Frank Marshall,SBD,MR-O,120,Raw,,1992,MO,108.9,197.5,207.5,-215,207.5,110,125,-132.5,125,242.5,257.5,-272.5,257.5,590
DD,M,Matthew Rutherford,SBD,MR-O,120+,Raw,,1985,TX,146.1,227.5,242.5,250,250,147.5,150,-165,150,220,227.5,237.5,237.5,
1,M,Rafael Jimenez,SBD,MR-O,120+,Raw,,1986,TX,128.1,185,190,192.5,192.5,142.5,145,-150,145,215,220,227.5,227.5,565
1,M,Matthew Nguyen,SBD,MR-T2,59,Raw,,1999,TX,58.2,140,142.5,147.5,147.5,90,95,-97.5,95,167.5,175,182.5,182.5,425
1,M,Ross Martinez,SBD,MR-T2,66,Raw,,1999,TX,65.4,125,137.5,147.5,147.5,70,77.5,-85,77.5,-145,-165,165,165,390
1,M,Carson Weiss,SBD,MR-T2,74,Raw,,2000,TX,72.2,117.5,130,137.5,137.5,70,82.5,85,85,142.5,160,182.5,182.5,405
2,M,Zachary Burnett,SBD,MR-T2,74,Raw,,1999,TX,69.1,105,115,-132.5,115,57.5,-65,70,70,112.5,130,142.5,142.5,327.5
1,M,Jonathan Erskine,SBD,MR-T2,105,Raw,,1990,TX,99.3,210,227.5,240,240,125,137.5,-140,137.5,250,272.5,-280,272.5,650
1,M,Justin Dowdy,SBD,MR-T3,59,Raw,,1997,TX,57.1,145,155,160,160,102.5,105,107.5,107.5,165,175,185,185,452.5
1,M,Rob Escalante,SBD,MR-T3,83,Raw,,1997,TX,82.8,200,210,220,220,140,147.5,155,155,225,235,242.5,242.5,617.5
2,M,Joshua Mounce,SBD,MR-T3,83,Raw,,1997,FL,79.5,147.5,165,182.5,182.5,120,130,-132.5,130,215,235,-250,235,547.5
1,M,Gabriel Driscoll,SBD,MR-Y3,53,Raw,,2004,TX,49.5,77.5,82.5,-87.5,82.5,40,-47.5,-47.5,40,95,97.5,102.5,102.5,225
1,M,Bradley P Kissinger,SBD,MR-Y3,59,Raw,,2003,TX,56.3,75,82.5,87.5,87.5,-45,45,50,50,-90,-90,90,90,227.5
1,M,Andres Perez,SBD,M-T2,83,Single-ply,,,TX,82.9,205,-235,-235,205,122.5,135,-142.5,135,185,195,-215,195,535
1,F,Ashley Guzman,SBD,F-Jr,47,Single-ply,,1995,TX,47,85,97.5,-100,97.5,42.5,47.5,52.5,52.5,87.5,92.5,100,100,250
1,F,Valerie Campbell,SBD,F-Jr,63,Single-ply,,1994,TX,57.9,97.5,102.5,-105,102.5,40,-45,-50,40,100,107.5,110,110,252.5
DQ,F,Paige Tillman,SBD,F-M2,84+,Single-ply,,1958,TX,86,-100,-105,-105,,60,-65,65,65,112.5,120,130,130,
1,F,Raith Hickman,SBD,F-O,47,Single-ply,,1991,TX,46.8,-55,55,-60,55,35,-37.5,37.5,37.5,77.5,82.5,87.5,87.5,180
1,F,Brenda Campuzano,SBD,F-O,63,Single-ply,,1990,TX,61.6,70,82.5,95,95,35,40,-47.5,40,95,102.5,115,115,250
1,F,Elora Johnson,SBD,FR-Jr,52,Raw,,1995,TX,51.1,57.5,65,67.5,67.5,40,45,-47.5,45,60,70,77.5,77.5,190
DQ,F,Whitney Tramel,SBD,FR-Jr,57,Raw,,1995,TX,52.5,-82.5,-85,-87.5,,45,50,-55,50,105,112.5,122.5,122.5,
1,F,Taylor Sellers,SBD,FR-Jr,63,Raw,,1994,TX,61.7,107.5,110,-112.5,110,45,-50,52.5,52.5,132.5,140,145,145,307.5
2,F,Ruth Barajas,SBD,FR-Jr,63,Raw,,1994,TX,59.5,110,117.5,120,120,45,-50,-50,45,110,115,117.5,117.5,282.5
1,F,Monique Distasi,SBD,FR-M1,63,Raw,,1973,TX,61.6,115,-120,120,120,70,72.5,-75,72.5,115,125,-137.5,125,317.5
1,F,LaKisha Funck,SBD,FR-M1,84+,Raw,,1976,TX,124,-115,115,130,130,65,72.5,77.5,77.5,115,132.5,147.5,147.5,355
1,F,Crystol Hazel,SBD,FR-M2,72,Raw,,1965,TX,70.4,85,97.5,102.5,102.5,57.5,60,-62.5,60,120,130,137.5,137.5,300
1,F,Lisa McAdams,SBD,FR-M2,84,Raw,,1958,TX,75.1,95,102.5,110,110,47.5,50,52.5,52.5,135,142.5,-147.5,142.5,305
1,F,Ashlee Hafenbrack,SBD,FR-O,52,Raw,,1988,TX,51.7,95,-100,-100,95,72.5,77.5,-82.5,77.5,132.5,-140,-140,132.5,305
1,F,Meghali Chopra,SBD,FR-O,57,Raw,,1989,TX,56.5,85,92.5,-95,92.5,60,-65,-65,60,127.5,137.5,-145,137.5,290
2,F,Alexsandra Trevino,SBD,FR-O,57,Raw,,1992,TX,56.4,102.5,-110,-110,102.5,55,57.5,-60,57.5,100,107.5,112.5,112.5,272.5
3,F,Jessica Patzer,SBD,FR-O,57,Raw,,1989,TX,54.9,62.5,-67.5,70,70,42.5,47.5,50,50,82.5,90,95,95,215
1,F,Charlcie Eyth,SBD,FR-O,63,Raw,,1989,TX,58.1,112.5,-122.5,-125,112.5,70,75,77.5,77.5,115,127.5,-140,127.5,317.5
2,F,Jill Seeley,SBD,FR-O,63,Raw,,1988,TX,60.8,92.5,97.5,102.5,102.5,-45,-50,50,50,105,112.5,117.5,117.5,270
1,F,Yvy Llambes,SBD,FR-O,72,Raw,,1984,TX,66.9,140,-145,145,145,70,77.5,-82.5,77.5,135,140,145,145,367.5
2,F,Celeste Charles,SBD,FR-O,72,Raw,,1990,TX,66.2,102.5,120,135,135,50,57.5,65,65,130,150,-167.5,150,350
3,F,Britney Penermon,SBD,FR-O,72,Raw,,1987,TX,66.5,85,97.5,-105,97.5,-75,80,85,85,135,150,165,165,347.5
4,F,Abbie Pittman,SBD,FR-O,72,Raw,,1992,TX,67,92.5,97.5,100,100,65,70,72.5,72.5,137.5,142.5,-145,142.5,315
5,F,Jessica Beene,SBD,FR-O,72,Raw,,1987,TX,66.9,97.5,105,110,110,57.5,62.5,67.5,67.5,115,122.5,130,130,307.5
6,F,Anita Smith,SBD,FR-O,72,Raw,,1990,TX,66.4,110,-117.5,122.5,122.5,52.5,57.5,62.5,62.5,110,120,-130,120,305
7,F,Carolyn Hentchel,SBD,FR-O,72,Raw,,1985,TX,64.9,85,90,95,95,55,60,62.5,62.5,125,130,135,135,292.5
8,F,Amanda Hansen,SBD,FR-O,72,Raw,,1986,TX,68.1,95,102.5,110,110,-52.5,57.5,-62.5,57.5,90,100,107.5,107.5,275
9,F,Meagan Stewart,SBD,FR-O,72,Raw,,1991,TX,66,67.5,70,72.5,72.5,50,52.5,-55,52.5,87.5,95,-100,95,220
1,F,Christina Ahn,SBD,FR-O,84,Raw,,1977,TX,77.4,90,102.5,110,110,60,67.5,-72.5,67.5,120,130,137.5,137.5,315
2,F,Sheila Ludeke,SBD,FR-O,84,Raw,,1988,TX,79.7,90,100,107.5,107.5,55,60,-67.5,60,130,142.5,-147.5,142.5,310
3,F,Kendra Jimenez,SBD,FR-O,84,Raw,,1986,TX,75.1,92.5,-97.5,-97.5,92.5,67.5,70,-72.5,70,92.5,95,97.5,97.5,260
1,F,Gurleen Lampkin,SBD,FR-O,84+,Raw,,1989,TX,107.7,-125,125,-132.5,125,50,52.5,-60,52.5,162.5,-170,-170,162.5,340
2,F,Corrinne Monroe,SBD,FR-O,84+,Raw,,1982,TX,123.3,-72.5,-72.5,72.5,72.5,40,42.5,-47.5,42.5,105,110,115,115,230
1,F,Angela Kengara,SBD,FR-T3,63,Raw,,1991,TX,62,80,82.5,-85,82.5,35,40,-47.5,40,105,110,117.5,117.5,240
1,F,Madison Curry,SBD,F-T2,57,Single-ply,,1998,TX,55.2,105,117.5,-125,117.5,45,-47.5,-47.5,45,97.5,-110,-112.5,97.5,260
1,F,Maddie Graham,SBD,F-T2,63,Single-ply,,1999,TX,59,147.5,157.5,-170,157.5,92.5,97.5,105,105,142.5,-152.5,-152.5,142.5,405
1,F,Martina Ruiz,SBD,F-T3,57,Single-ply,,2000,TX,56.8,85,87.5,-92.5,87.5,45,52.5,-55,52.5,115,-127.5,-132.5,115,255
1,F,Megan Doyle,SBD,F-T3,72,Single-ply,,1997,TX,70.9,120,137.5,145,145,-60,62.5,67.5,67.5,120,145,165,165,377.5
1,M,Jeffrey Ordonez,BD,MR-Jr,66,Raw,,1994,MO,65,,,,,105,110,115,115,130,145,-182.5,145,260
