﻿BDFPF-DFPFNL NATIONAAL KAMPIOENSCHAP EQUIPPED 2019
SQ                                                   Pow                                                     BW      SQ     BE       DL      TOT
1                                                    1           - 90 KG Mazet         Kim         34 SR     82,6    130    75       150     355     238,74
1                                                    1           67,5 KG Goossens      Chesney     27 SR     65,4    155    170      162,5   487,5   364,21
1                                                    1           67,5 KG Boland        Darren      44 M1     66,6    140    130      205     475     348,98
1                                                    1           82,5 KG Abdullah      Christian   20 JR     80,4    220    125      245     590     372,11
1                                                    1           100 KG Verbeke        Beny        54 M3     93,0    210    120      245     575     330,28
1                                                    1           110 KG Debyser        Ward        18 T3     107,5   190    160      260     610     329,28
1                                                    1           110 KG Tancré         Kevin       25 SR     102,4   260    165      262,5   687,5   377,23
                                                                 Team bench EQUIPPED
                                                                 - 90 KG Mazet         Kim         F   BEL   34      SR     82,6     70      -75     -75      50,44
                                                                 67,5 KG Goossens      Chesney     M  BEL    27      SR     65,4     170     -175    -183     127,01
                                                                 67,5 KG Boland        Darren      M  BEL    44      M1     66,6     120     130     -137,5   95,51
                                                                 125 KG Harms          Orson       M  NED    45      M2     124,9    195     -200    -200     101,61
100 KG Verbeke                                       Beny        M  BEL                54          M3        93,0    120    -127,5           68,93
110 KG Debyser                                       Ward        M  BEL                18          T3        107,5   140    150      160     86,37
82,5 KG Abdullah                                     Christian   M  BEL                20          JR        80,4    -120   120      125     78,84
110 KG Tancré                                        Kevin       M  BEL                25          SR        102,4   -165   -165     165     90,54
