Division,WeightClassKg,Place,Name,Team,BodyweightKg,Best3SquatKg,Best3BenchKg,Best3DeadliftKg,TotalKg,Equipment,Event,Sex
Boys,51.71,1,Kyle Parks,Fort Worth Western Hills,43.64,54.43,29.48,65.77,149.69,Single-ply,SBD,M
Boys,51.71,DQ,Javier Garcia #5,Lancaster,51.71,,,,,Single-ply,SBD,M
Boys,55.79,1,Dillan Brown,Decatur,55.66,204.12,106.59,197.31,508.02,Single-ply,SBD,M
Boys,55.79,2,Nolan Newville,Decatur,55.29,151.95,102.06,165.56,419.57,Single-ply,SBD,M
Boys,55.79,3,Jordan McCasland,Decatur,55.16,117.93,72.57,124.74,315.25,Single-ply,SBD,M
Boys,59.87,4,Savon Logan,Carrollton Creekview,55.97,108.86,72.57,129.27,310.71,Single-ply,SBD,M
Boys,55.79,5,Roberto Parra,Carrollton Creekview,52.39,102.06,52.16,117.93,272.16,Single-ply,SBD,M
Boys,55.79,6,Kris Glynn,Waco University,52.44,92.99,54.43,97.52,244.94,Single-ply,SBD,M
Boys,55.79,7,Andrew Gonzales,Waco University,52.84,92.99,54.43,83.91,231.33,Single-ply,SBD,M
Boys,55.79,8,Stephen Trevino,Haltom City Haltom,53.34,83.91,52.16,88.45,224.53,Single-ply,SBD,M
Boys,59.87,1,Raul Rodriguez,Hurst Bell,59.42,147.42,95.25,140.61,383.29,Single-ply,SBD,M
Boys,59.87,2,Roque Rivas,Bowie,59.42,138.35,86.18,154.22,378.75,Single-ply,SBD,M
Boys,59.87,3,Chris Alcantar,Carrollton Creekview,58.06,120.2,83.91,158.76,362.87,Single-ply,SBD,M
Boys,59.87,4,Joe Sosa,Fort Worth North Side,58.38,124.74,65.77,147.42,337.93,Single-ply,SBD,M
Boys,59.87,5,Zach Ramirez,Decatur,58.69,113.4,70.31,149.69,333.39,Single-ply,SBD,M
Boys,67.13,6,Ivan Oropeza,Fort Worth North Side,59.96,129.27,61.23,140.61,331.12,Single-ply,SBD,M
Boys,59.87,7,Kamon Long,Waco University,58.92,120.2,74.84,124.74,319.78,Single-ply,SBD,M
Boys,59.87,8,Marcos Morales,Decatur,57.52,102.06,72.57,124.74,299.37,Single-ply,SBD,M
Boys,59.87,9,Anthony Ramos,Fort Worth Western Hills,58.15,88.45,65.77,120.2,274.42,Single-ply,SBD,M
Boys,67.13,10,Brian Latiago,Fort Worth Western Hills,60.01,74.84,61.23,136.08,272.16,Single-ply,SBD,M
Boys,67.13,1,Antwan Coleman,Waco University,66.32,195.04,117.93,185.97,498.95,Single-ply,SBD,M
Boys,67.13,2,Zach Remily,Bowie,61.46,185.97,108.86,174.63,469.47,Single-ply,SBD,M
Boys,67.13,3,Joe Szymanski,Northwest Nelson,65.41,167.83,99.79,165.56,433.18,Single-ply,SBD,M
Boys,67.13,4,Corey Carter,Fort Worth Western Hills,67.04,156.49,90.72,176.9,424.11,Single-ply,SBD,M
Boys,67.13,5,Chad Layton,Decatur,64.59,149.69,99.79,158.76,408.23,Single-ply,SBD,M
Boys,67.13,6,Cole Chambless,Haltom City Haltom,66,142.88,97.52,151.95,392.36,Single-ply,SBD,M
Boys,67.13,7,Xavier Robertson,Waco University,67,136.08,86.18,161.03,383.29,Single-ply,SBD,M
Boys,67.13,8,Zach Randolph,Northwest Nelson,63.96,149.69,92.99,138.35,381.02,Single-ply,SBD,M
Boys,74.84,9,James Gandy,Fort Worth Western Hills,67.22,129.27,79.38,161.03,369.68,Single-ply,SBD,M
Boys,67.13,10,Dempsey Duprie,Midlothian,62.73,120.2,88.45,140.61,349.27,Single-ply,SBD,M
Boys,67.13,11,Desmond Mize,Fort Worth Western Hills,61.14,111.13,86.18,142.88,340.19,Single-ply,SBD,M
Boys,67.13,12,Andrew Linehan,Haltom City Haltom,65.86,111.13,90.72,136.08,337.93,Single-ply,SBD,M
Boys,67.13,13,Joey Opitz,Haltom City Haltom,62.41,124.74,74.84,136.08,335.66,Single-ply,SBD,M
Boys,67.13,14,Chris Zapata,Carrollton Turner,64.27,102.06,68.04,147.42,317.51,Single-ply,SBD,M
Boys,67.13,15,Bryant Malone,Midlothian,62.73,111.13,70.31,120.2,301.64,Single-ply,SBD,M
Boys,67.13,16,Alexeec Dismuke,Lancaster,66.72,90.72,74.84,115.67,281.23,Single-ply,SBD,M
Boys,67.13,17,Erick Alvarez,Carrollton Creekview,63.32,92.99,61.23,124.74,278.96,Single-ply,SBD,M
Boys,67.13,18,Grant Leach,Fort Worth Western Hills,64,88.45,61.23,120.2,269.89,Single-ply,SBD,M
Boys,67.13,19,Zach Stagner,Midlothian,66.09,77.11,70.31,90.72,238.14,Single-ply,SBD,M
Boys,67.13,DQ,Alex Greer,Lancaster,63.05,,,,,Single-ply,SBD,M
Boys,74.84,1,Colin Radford,Joshua,74.34,174.63,108.86,195.04,478.54,Single-ply,SBD,M
Boys,74.84,2,Jake Mears,Joshua,72.53,181.44,95.25,199.58,476.27,Single-ply,SBD,M
Boys,82.1,3,Tyler Hadaway,Joshua,75.02,199.58,95.25,179.17,474,Single-ply,SBD,M
Boys,74.84,4,Dejah Whatley,Fort Worth Western Hills,70.03,167.83,104.33,197.31,469.47,Single-ply,SBD,M
Boys,74.84,5,Josh Zarazua,Waco University,73.8,165.56,117.93,172.37,455.86,Single-ply,SBD,M
Boys,74.84,6,Tre Stevens,Hurst Bell,68.54,158.76,92.99,163.29,415.04,Single-ply,SBD,M
Boys,74.84,7,David Brown #12,Hurst Bell,74.57,140.61,127.01,147.42,415.04,Single-ply,SBD,M
Boys,74.84,8,Josue Hernandez,Fort Worth North Side,74.34,142.88,90.72,176.9,410.5,Single-ply,SBD,M
Boys,74.84,9,Jesus Padilla,Fort Worth North Side,70.35,142.88,90.72,154.22,387.82,Single-ply,SBD,M
Boys,74.84,10,Drew DeHaven,Northwest Nelson,70.99,140.61,81.65,158.76,381.02,Single-ply,SBD,M
Boys,74.84,11,Kiet Nguyen,Carrollton Creekview,73.39,138.35,83.91,142.88,365.14,Single-ply,SBD,M
Boys,74.84,12,Paul Lacy,Lancaster,68.31,142.88,77.11,142.88,362.87,Single-ply,SBD,M
Boys,74.84,13,Austin Powell,Fort Worth Western Hills,68.63,142.88,74.84,142.88,360.61,Single-ply,SBD,M
Boys,74.84,14,Dean Strouth,Midlothian,69.04,124.74,86.18,142.88,353.8,Single-ply,SBD,M
Boys,74.84,15,Joseph Calderon,Keller Timber Creek,71.35,142.88,79.38,131.54,353.8,Single-ply,SBD,M
Boys,74.84,16,Teddy Daniels,Dallas Highland Park,71.35,136.08,77.11,129.27,342.46,Single-ply,SBD,M
Boys,74.84,17,Eric Rosales,Carrollton Turner,73.62,108.86,77.11,154.22,340.19,Single-ply,SBD,M
Boys,74.84,18,Tyler Coody,Midlothian,69.76,97.52,63.5,122.47,283.5,Single-ply,SBD,M
Boys,74.84,DQ,Corderius Cooksey,Haltom City Haltom,71.21,131.54,,,,Single-ply,SBD,M
Boys,74.84,DQ,James Watson,Haltom City Haltom,69.9,,,,,Single-ply,SBD,M
Boys,82.1,1,Jt Vines,Hurst Bell,80.88,161.03,106.59,183.7,451.32,Single-ply,SBD,M
Boys,89.81,2,David Portillo,Carrollton Turner,82.15,158.76,106.59,183.7,449.06,Single-ply,SBD,M
Boys,89.81,3,Eric Torry,Fort Worth Western Hills,82.24,161.03,83.91,199.58,444.52,Single-ply,SBD,M
Boys,82.1,4,Aaron Stevenson,Fort Worth Western Hills,79.33,163.29,92.99,183.7,439.98,Single-ply,SBD,M
Boys,82.1,5,Matt Jones #5,Northwest Nelson,78.79,167.83,115.67,151.95,435.45,Single-ply,SBD,M
Boys,82.1,6,Aaron Molder,Hurst Bell,80.83,156.49,92.99,185.97,435.45,Single-ply,SBD,M
Boys,82.1,7,Matt Mason,Hurst Bell,78.61,140.61,90.72,172.37,403.7,Single-ply,SBD,M
Boys,82.1,8,Juan Perez #14,Decatur,76.34,149.69,102.06,145.15,396.89,Single-ply,SBD,M
Boys,82.1,9,Reed Sherman,Northwest Nelson,77.7,154.22,88.45,142.88,385.55,Single-ply,SBD,M
Boys,82.1,10,Clay Barrientos,Midlothian,80.88,136.08,90.72,145.15,371.95,Single-ply,SBD,M
Boys,82.1,11,Asad Irfan,Carrollton Creekview,81.19,129.27,99.79,142.88,371.95,Single-ply,SBD,M
Boys,82.1,12,Regi Rodriguez,Fort Worth North Side,78.47,97.52,108.86,129.27,335.66,Single-ply,SBD,M
Boys,82.1,13,Ruben Angeles,Fort Worth North Side,81.37,108.86,70.31,154.22,333.39,Single-ply,SBD,M
Boys,82.1,14,Alex Vasquez,Carrollton Creekview,75.21,99.79,83.91,106.59,290.3,Single-ply,SBD,M
Boys,82.1,DQ,Jordan Ortiz,Northwest Nelson,76.57,,,,,Single-ply,SBD,M
Boys,89.81,1,Justin Campos,Fort Worth North Side,89.68,226.8,131.54,217.72,576.06,Single-ply,SBD,M
Boys,89.81,2,KJ Evans,Joshua,84.55,213.19,129.27,213.19,555.65,Single-ply,SBD,M
Boys,99.79,3,Jon Green #2,Hurst Bell,89.95,185.97,122.47,195.04,503.49,Single-ply,SBD,M
Boys,89.81,4,Ryan Tharp,Hurst Bell,88.09,176.9,138.35,181.44,496.68,Single-ply,SBD,M
Boys,89.81,5,Lance Honeycutt,Northwest Nelson,85,199.58,111.13,181.44,492.15,Single-ply,SBD,M
Boys,89.81,6,Denzel Lewis,Lancaster,87.41,170.1,115.67,199.58,485.34,Single-ply,SBD,M
Boys,89.81,7,Elliot Souter,Hurst Bell,83.78,174.63,104.33,188.24,467.2,Single-ply,SBD,M
Boys,89.81,8,Josh Garcias,Carrollton Creekview,86.91,151.95,108.86,185.97,446.79,Single-ply,SBD,M
Boys,89.81,9,Peter Gatson,Lancaster,87.41,165.56,88.45,192.78,446.79,Single-ply,SBD,M
Boys,89.81,10,Adan Garcia,Fort Worth South Hills,88.86,172.37,102.06,156.49,430.91,Single-ply,SBD,M
Boys,89.81,11,Christian Garcia,Fort Worth Western Hills,84.46,165.56,92.99,165.56,424.11,Single-ply,SBD,M
Boys,99.79,12,Brent Janss,Dallas Highland Park,89.9,158.76,115.67,149.69,424.11,Single-ply,SBD,M
Boys,89.81,13,Travis Alford,Dallas Highland Park,82.83,161.03,102.06,158.76,421.84,Single-ply,SBD,M
Boys,89.81,14,Jonathan Kawas,Fort Worth North Side,89.36,151.95,68.04,149.69,369.68,Single-ply,SBD,M
Boys,89.81,15,Cameron McEnturff,Midlothian,87.23,120.2,90.72,147.42,358.34,Single-ply,SBD,M
Boys,89.81,16,Dustin Craffe,Midlothian,84.91,97.52,72.57,136.08,306.17,Single-ply,SBD,M
Boys,89.81,17,Randall Vasquez,Fort Worth Western Hills,87.41,83.91,74.84,142.88,301.64,Single-ply,SBD,M
Boys,89.81,18,Garrett Wolf,Midlothian,83.96,97.52,70.31,111.13,278.96,Single-ply,SBD,M
Boys,89.81,19,Daniel Kirk,Lancaster,82.51,90.72,65.77,102.06,258.55,Single-ply,SBD,M
Boys,89.81,DQ,Darius Finley,Lancaster,89.36,,,,,Single-ply,SBD,M
Boys,89.81,DQ,True Miller,Bowie,83.91,,,,,Single-ply,SBD,M
Boys,89.81,DQ,Jaylan Cruz,Haltom City Haltom,84.14,151.95,,,,Single-ply,SBD,M
Boys,89.81,DQ,Silas Kazadi,Haltom City Haltom,87.14,113.4,,,,Single-ply,SBD,M
Boys,99.79,1,Kameron Sally,Hurst Bell,95.53,226.8,136.08,195.04,557.92,Single-ply,SBD,M
Boys,99.79,2,Josh Whitworth,Joshua,91.22,204.12,131.54,208.65,544.31,Single-ply,SBD,M
Boys,99.79,3,Torian Love,Fort Worth Western Hills,97.43,210.92,111.13,219.99,542.04,Single-ply,SBD,M
Boys,99.79,4,Nick Salinaro,Dallas Highland Park,92.53,183.7,117.93,213.19,514.83,Single-ply,SBD,M
Boys,99.79,5,Karim Behloul,Hurst Bell,90.36,195.04,104.33,213.19,512.56,Single-ply,SBD,M
Boys,99.79,6,Hunter Stewart,Argyle,92.12,195.04,108.86,204.12,508.02,Single-ply,SBD,M
Boys,99.79,7,Pj Caparelli,Bowie,99.06,210.92,102.06,181.44,494.42,Single-ply,SBD,M
Boys,99.79,8,Mason Del Castillo,Decatur,95.89,174.63,111.13,199.58,485.34,Single-ply,SBD,M
Boys,99.79,9,Jack Ceverha,Dallas Highland Park,96.89,181.44,113.4,190.51,485.34,Single-ply,SBD,M
Boys,99.79,10,Andrew Dotson,Northwest Nelson,93.58,181.44,92.99,183.7,458.13,Single-ply,SBD,M
Boys,99.79,11,Andrew Young #3,Joshua,95.8,192.78,97.52,165.56,455.86,Single-ply,SBD,M
Boys,99.79,12,Rickey Roberts,Decatur,99.52,158.76,97.52,197.31,453.59,Single-ply,SBD,M
Boys,99.79,13,Jacob Sarracino,Dallas Highland Park,98.02,151.95,122.47,156.49,430.91,Single-ply,SBD,M
Boys,99.79,14,Fernando Perez,Carrollton Turner,97.79,170.1,86.18,170.1,426.38,Single-ply,SBD,M
Boys,99.79,15,Eric Crowley,Haltom City Haltom,90.85,154.22,102.06,165.56,421.84,Single-ply,SBD,M
Boys,99.79,16,Chauncey Rich,Haltom City Haltom,94.89,154.22,104.33,161.03,419.57,Single-ply,SBD,M
Boys,99.79,17,Shaq McDade,Fort Worth Western Hills,97.7,142.88,74.84,183.7,401.43,Single-ply,SBD,M
Boys,99.79,18,Craig White,Lancaster,96.16,147.42,90.72,158.76,396.89,Single-ply,SBD,M
Boys,99.79,19,Anthony Richards,Dallas Highland Park,94.44,145.15,97.52,136.08,378.75,Single-ply,SBD,M
Boys,99.79,20,Luis Triano,Carrollton Turner,99.34,124.74,77.11,163.29,365.14,Single-ply,SBD,M
Boys,99.79,21,Austin Young,Carrollton Creekview,95.35,124.74,83.91,154.22,362.87,Single-ply,SBD,M
Boys,99.79,22,Rickey Nelson,Lancaster,95.07,142.88,79.38,122.47,344.73,Single-ply,SBD,M
Boys,99.79,23,Brian Taylor,Lancaster,99.38,115.67,61.23,120.2,297.1,Single-ply,SBD,M
Boys,99.79,DQ,Josh Fleming,Keller Timber Creek,95.71,192.78,,,,Single-ply,SBD,M
Boys,109.77,1,Harrison Goad,Haltom City Haltom,109.13,238.14,149.69,244.94,632.76,Single-ply,SBD,M
Boys,109.77,2,Darius Jones #4,Lancaster,106.19,208.65,108.86,217.72,535.24,Single-ply,SBD,M
Boys,109.77,3,Dalton Carter,Joshua,100.29,185.97,129.27,192.78,508.02,Single-ply,SBD,M
Boys,109.77,4,Nigel Spencer,Northwest Nelson,100.92,201.85,108.86,190.51,501.22,Single-ply,SBD,M
Boys,109.77,5,Eric Walker,Decatur,102.56,183.7,97.52,210.92,492.15,Single-ply,SBD,M
Boys,109.77,6,Cruz Marquez,Joshua,103.96,197.31,99.79,195.04,492.15,Single-ply,SBD,M
Boys,109.77,7,Jackson Tittle,Dallas Highland Park,102.65,183.7,113.4,192.78,489.88,Single-ply,SBD,M
Boys,109.77,8,Tj May,Bowie,105.23,201.85,113.4,167.83,483.08,Single-ply,SBD,M
Boys,109.77,9,Trey Good,Joshua,100.92,183.7,106.59,181.44,471.74,Single-ply,SBD,M
Boys,109.77,10,Gabriel Vega,Waco University,108,183.7,83.91,176.9,444.52,Single-ply,SBD,M
Boys,109.77,11,Gil Horn,Dallas Highland Park,106.05,154.22,92.99,156.49,403.7,Single-ply,SBD,M
Boys,109.77,12,Jonathan Delvalle,Carrollton Turner,104.19,145.15,83.91,154.22,383.29,Single-ply,SBD,M
Boys,109.77,13,David Fridae,Carrollton Turner,108.41,161.03,68.04,136.08,365.14,Single-ply,SBD,M
Boys,109.77,14,Tremont Allen,Lancaster,105.46,115.67,83.91,136.08,335.66,Single-ply,SBD,M
Boys,109.77,DQ,Emmanual Davis,Lancaster,104.33,,,,,Single-ply,SBD,M
Boys,109.77,DQ,Victor Torrez,Fort Worth South Hills,108.23,,,,,Single-ply,SBD,M
Boys,109.77,DQ,Felix Medrano,Northwest Nelson,109.77,,,,,Single-ply,SBD,M
Boys,109.77,DQ,Jeremy DeSantos,Northwest Nelson,106.82,,,,,Single-ply,SBD,M
Boys,109.77,DQ,Taurus Hull,Haltom City Haltom,106.41,242.67,,,,Single-ply,SBD,M
Boys,124.74,1,DeAndre Wilson,Fort Worth Western Hills,123.33,229.06,165.56,274.42,669.05,Single-ply,SBD,M
Boys,124.74,2,Albert Willingham,Fort Worth Western Hills,113.99,254.01,183.7,215.46,653.17,Single-ply,SBD,M
Boys,124.74,3,Julian Salmond,Fort Worth Western Hills,123.97,247.21,106.59,224.53,578.33,Single-ply,SBD,M
Boys,124.74,4,Quandre Scott,Fort Worth South Hills,120.29,206.38,140.61,183.7,530.7,Single-ply,SBD,M
Boys,124.74,5,Ethan Beasley,Dallas Highland Park,117.62,204.12,111.13,204.12,519.36,Single-ply,SBD,M
Boys,124.74,6,Jack Howard,Dallas Highland Park,116.8,204.12,115.67,195.04,514.83,Single-ply,SBD,M
Boys,124.74,7,Michael Exon,Haltom City Haltom,120.56,183.7,129.27,183.7,496.68,Single-ply,SBD,M
Boys,124.74,8,Michael Bonilla,Waco University,120.38,199.58,111.13,183.7,494.42,Single-ply,SBD,M
Boys,124.74,9,William Barns,Dallas Highland Park,116.62,172.37,115.67,181.44,469.47,Single-ply,SBD,M
Boys,124.74,10,Paul Granados,Fort Worth South Hills,123.6,188.24,92.99,165.56,446.79,Single-ply,SBD,M
Boys,124.74,DQ,Markeist Scott,Lancaster,120.2,,,,,Single-ply,SBD,M
Boys,124.74,DQ,Jonthan Zarugoza,Haltom City Haltom,111.4,231.33,,,,Single-ply,SBD,M
Boys,124.74,DQ,Serafin Garcia,Carrollton Turner,115.67,136.08,,,,Single-ply,SBD,M
Boys,124.74+,1,Mason White,Keller Timber Creek,125.24,317.51,181.44,238.14,737.09,Single-ply,SBD,M
Boys,124.74+,2,Ray Cortez,Decatur,147.92,265.35,165.56,276.69,707.6,Single-ply,SBD,M
Boys,124.74+,3,Ben Hughes,Waco University,132.99,272.16,156.49,260.82,689.46,Single-ply,SBD,M
Boys,124.74+,4,Sean Partridge,Fort Worth Western Hills,127.23,229.06,102.06,213.19,544.31,Single-ply,SBD,M
Boys,124.74+,5,Alex Garcia #7,Fort Worth South Hills,129.95,204.12,136.08,204.12,544.31,Single-ply,SBD,M
Boys,124.74+,6,Daryl Westbrook,Fort Worth South Hills,168.46,226.8,115.67,183.7,526.17,Single-ply,SBD,M
Boys,124.74+,7,Kyle Green,Joshua,152.45,197.31,129.27,183.7,510.29,Single-ply,SBD,M
Boys,124.74+,8,Caleb Riley,Joshua,130.04,204.12,111.13,181.44,496.68,Single-ply,SBD,M
Boys,124.74+,9,Chris Hinton,Midlothian,133.49,154.22,108.86,183.7,446.79,Single-ply,SBD,M
Boys,124.74+,10,David Aguire,Fort Worth Western Hills,134.54,151.95,102.06,183.7,437.72,Single-ply,SBD,M
Boys,124.74+,11,Jared Sanderson,Midlothian,132.81,142.88,79.38,129.27,351.53,Single-ply,SBD,M
Boys,124.74+,DQ,John Johnson,Lancaster,136.08,,,,,Single-ply,SBD,M
Boys,124.74+,DQ,Markel Garner,Lancaster,140.89,233.6,,,,Single-ply,SBD,M
Boys,124.74+,DQ,Jesse Venegas,Fort Worth South Hills,135.49,183.7,,,,Single-ply,SBD,M
Boys,,NS,Kayne Mathews,Lancaster,,,,,,Single-ply,SBD,M
