Name,WeightClassKg,Division,Sex,AgeRange,Best3SquatKg,Best3BenchKg,Best3DeadliftKg,TotalKg,Event,Equipment,Place
Kevin Jones #12,52,Open,M,,145,90,147.5,382.5,SBD,Single-ply,1
Craig Stine,52,Open,M,,140,90,140,370,SBD,Single-ply,2
Junior Bergeron,52,Open,M,,112.5,65,160,337.5,SBD,Single-ply,3
David SanMiguel,52,Open,M,,117.5,67.5,147.5,332.5,SBD,Single-ply,4
David Dunn,52,Open,M,,95,50,120,265,SBD,Single-ply,5
Tim Smith #1,56,Open,M,,145,97.5,172.5,415,SBD,Single-ply,1
Mike Duhon,56,Open,M,,132.5,95,175,402.5,SBD,Single-ply,2
Michael Chambers,60,Open,M,,197.5,120,197.5,515,SBD,Single-ply,1
R. Matte,60,Open,M,,167.5,100,200,467.5,SBD,Single-ply,2
Sal Boscareno,60,Open,M,,170,97.5,165,432.5,SBD,Single-ply,3
Brian Broussard,67.5,Open,M,,212.5,137.5,227.5,577.5,SBD,Single-ply,1
Kevin Matte,67.5,Open,M,,227.5,117.5,227.5,572.5,SBD,Single-ply,2
Doug Holland,67.5,Open,M,,227.5,130,212.5,570,SBD,Single-ply,3
Lane Thomas #1,67.5,Open,M,,190,127.5,200,517.5,SBD,Single-ply,4
C. Thibodeaux,67.5,Open,M,,170,122.5,205,497.5,SBD,Single-ply,5
J. LaBlanc,67.5,Open,M,,137.5,100,147.5,385,SBD,Single-ply,6
Kevin Weir,75,Open,M,,240,145,260,645,SBD,Single-ply,1
Mark Fowler,75,Open,M,,227.5,147.5,245,620,SBD,Single-ply,2
Randy Sanzone,75,Open,M,,210,170,230,610,SBD,Single-ply,3
Steve LeMarié,75,Open,M,,235,127.5,240,602.5,SBD,Single-ply,4
Joshua James,75,Open,M,,227.5,112.5,230,570,SBD,Single-ply,5
J. McDaniels,75,Open,M,,175,127.5,245,547.5,SBD,Single-ply,6
C. Montgomery,75,Open,M,,165,165,200,530,SBD,Single-ply,7
Vincent Petre,75,Open,M,,170,132.5,207.5,510,SBD,Single-ply,8
T. Page,75,Open,M,,177.5,112.5,182.5,472.5,SBD,Single-ply,9
Billy Roth,75,Open,M,40-999,142.5,112.5,182.5,437.5,SBD,Single-ply,10
Ted Boccich,75,Open,M,,112.5,85,165,362.5,SBD,Single-ply,11
Raymond Kobetz,82.5,Open,M,,290,162.5,325,777.5,SBD,Single-ply,1
Chad DeRousselle,82.5,Open,M,,257.5,147.5,272.5,677.5,SBD,Single-ply,2
Tom Fields,82.5,Open,M,,237.5,167.5,250,655,SBD,Single-ply,3
Richard Watson,82.5,Open,M,,227.5,167.5,255,650,SBD,Single-ply,4
J. Caragol,82.5,Open,M,,217.5,175,197.5,590,SBD,Single-ply,5
C. Morris #4,82.5,Open,M,,190,122.5,237.5,550,SBD,Single-ply,6
John Burns,82.5,Open,M,,192.5,130,197.5,520,SBD,Single-ply,7
Mike Reed,90,Open,M,,285,165,305,755,SBD,Single-ply,1
David Post,90,Open,M,,272.5,167.5,295,735,SBD,Single-ply,2
Henry Pitard,90,Open,M,40-999,280,162.5,280,722.5,SBD,Single-ply,3
John McDowell #1,90,Open,M,,250,160,260,670,SBD,Single-ply,4
Bob Brankline,90,Open,M,,215,135,242.5,592.5,SBD,Single-ply,5
James Hankins,90,Open,M,,187.5,130,227.5,545,SBD,Single-ply,6
Don Beter,100,Open,M,,325,182.5,302.5,810,SBD,Single-ply,1
Phil Elmore,100,Open,M,,282.5,195,297.5,775,SBD,Single-ply,2
K. Black,100,Open,M,,282.5,190,247.5,720,SBD,Single-ply,3
Tim Early,100,Open,M,,237.5,172.5,242.5,652.5,SBD,Single-ply,4
C. Banks,100,Open,M,,245,157.5,242.5,645,SBD,Single-ply,5
K. Hall,100,Open,M,,150,145,150,445,SBD,Single-ply,6
B. Jones,100,Open,M,40-999,140,122.5,147.5,410,SBD,Single-ply,7
Rod Dartez,110,Open,M,,277.5,195,327.5,800,SBD,Single-ply,1
Frank Christman,110,Open,M,,300,190,282.5,772.5,SBD,Single-ply,2
J. DeJean,110,Open,M,,275,215,247.5,737.5,SBD,Single-ply,3
E. Simmons,110,Open,M,,270,182.5,282.5,735,SBD,Single-ply,4
Garland Carroll,110,Open,M,,170,162.5,200,532.5,SBD,Single-ply,5
Casey Sanders,125,Open,M,,227.5,242.5,285,755,SBD,Single-ply,1
Terry Buford,125,Open,M,,232.5,135,240,607.5,SBD,Single-ply,2
Geo Kostuch,125,Open,M,40-999,205,182.5,220,607.5,SBD,Single-ply,3
T. Smith,125,Open,M,40-999,172.5,152.5,220,545,SBD,Single-ply,4
Joe Ciaccio,125,Open,M,,182.5,115,227.5,525,SBD,Single-ply,5
E. Paul,125+,Open,M,,250,170,205,625,SBD,Single-ply,1
Laurie Greene,52,Open,F,,112.5,57.5,135,305,SBD,Single-ply,1
Tanya Talton,52,Open,F,,90,42.5,122.5,255,SBD,Single-ply,2
Wendi Lyons,56,Open,F,,90,47.5,120,257.5,SBD,Single-ply,2
R. Matte,56,Open,F,,167.5,100,200,467.5,SBD,Single-ply,1
L. Bordelon,56,Open,F,,82.5,55,100,237.5,SBD,Single-ply,3
E. Gerkin,56,Open,F,,82.5,42.5,92.5,217.5,SBD,Single-ply,4
Pam Austin,75,Open,F,,122.5,60,140,322.5,SBD,Single-ply,1
M. Somoskey,75,Open,F,,95,55,125,275,SBD,Single-ply,2
T. Robinson,75,Open,F,,90,45,122.5,257.5,SBD,Single-ply,3
S. Schwenke,75,Open,F,,92.5,50,115,257.5,SBD,Single-ply,4
