Division,WeightClassKg,Place,Name,Team,BodyweightKg,Best3SquatKg,Best3BenchKg,Best3DeadliftKg,TotalKg,Equipment,Event,Sex
Boys,51.71,1,Benton Novin,Whitesboro,49.9,117.93,58.97,129.27,306.17,Single-ply,SBD,M
Boys,51.71,2,Joe Cullum,Kennedale,49.9,113.4,70.31,120.2,303.91,Single-ply,SBD,M
Boys,51.71,3,James Ramsey,Pottsboro,50.8,124.74,58.97,117.93,301.64,Single-ply,SBD,M
Boys,51.71,4,Lane Anthony,Nevada Community,50.35,117.93,54.43,120.2,292.57,Single-ply,SBD,M
Boys,51.71,5,Braxton Barneck,Plano,48.53,102.06,65.77,102.06,269.89,Single-ply,SBD,M
Boys,51.71,6,Michael Mixon,Anna,51.71,97.52,56.7,104.33,258.55,Single-ply,SBD,M
Boys,51.71,7,Chasmon Davis,Everman,45.81,79.38,49.9,95.25,224.53,Single-ply,SBD,M
Boys,51.71,8,Michael Ellis,Nocona,46.72,68.04,45.36,97.52,210.92,Single-ply,SBD,M
Boys,51.71,9,Jesus Garcia #6,Plano,41.28,70.31,31.75,83.91,185.97,Single-ply,SBD,M
Boys,51.71,10,Jimmy Esparza,Pottsboro,48.99,61.23,38.56,74.84,174.63,Single-ply,SBD,M
Boys,51.71,DQ,Vlad Ramirez,Castleberry,48.99,,,,,Single-ply,SBD,M
Boys,55.79,1,Justin Lindsey,Kennedale,52.62,181.44,102.06,142.88,426.38,Single-ply,SBD,M
Boys,55.79,2,Angel Rico,Kennedale,52.62,124.74,63.5,131.54,319.78,Single-ply,SBD,M
Boys,55.79,3,Josh Brinkley,Muenster,53.07,124.74,61.23,131.54,317.51,Single-ply,SBD,M
Boys,55.79,4,Landry Hoskins,Sanger,53.52,120.2,72.57,124.74,317.51,Single-ply,SBD,M
Boys,55.79,5,Chase Barnett,Howe,55.79,120.2,61.23,136.08,317.51,Single-ply,SBD,M
Boys,55.79,6,Kevin Weiss,Plano,54.43,102.06,83.91,108.86,294.84,Single-ply,SBD,M
Boys,55.79,7,Manuel Labrada,Whitesboro,55.34,95.25,52.16,111.13,258.55,Single-ply,SBD,M
Boys,55.79,8,Sayler Fenoglio,Nocona,55.34,81.65,61.23,97.52,240.4,Single-ply,SBD,M
Boys,55.79,9,Adam Wilbert,Aubrey,55.79,79.38,52.16,104.33,235.87,Single-ply,SBD,M
Boys,55.79,10,Fernando Huerta,Bridgeport,55.34,61.23,52.16,95.25,208.65,Single-ply,SBD,M
Boys,55.79,11,Matt Pelzel,Pilot Point,53.52,38.56,56.7,102.06,197.31,Single-ply,SBD,M
Boys,59.87,1,Edgar Aguirre,Everman,59.42,147.42,95.25,181.44,424.11,Single-ply,SBD,M
Boys,59.87,2,Tyler Watts,Sanger,59.42,140.61,95.25,156.49,392.36,Single-ply,SBD,M
Boys,59.87,3,Kyle Humphries,Sherman,58.51,142.88,102.06,142.88,387.82,Single-ply,SBD,M
Boys,59.87,4,Luke Sciba,Aubrey,59.42,131.54,90.72,145.15,367.41,Single-ply,SBD,M
Boys,59.87,5,Eli Ersch,Pottsboro,59.87,131.54,79.38,129.27,340.19,Single-ply,SBD,M
Boys,59.87,6,Gage Ahrens,Prosper,59.87,99.79,52.16,115.67,267.62,Single-ply,SBD,M
Boys,59.87,7,Colby Metzler,Lindsay,57.15,88.45,52.16,113.4,254.01,Single-ply,SBD,M
Boys,59.87,8,Nicholas Reid,Anna,59.42,161.03,,,161.03,Single-ply,S,M
Boys,59.87,9,Jacob Reddin,Anna,59.42,115.67,,,115.67,Single-ply,S,M
Boys,67.13,1,Leo Sustaita,Gainesville,66.22,190.51,115.67,204.12,510.29,Single-ply,SBD,M
Boys,67.13,2,Nicholas Ellis #1,Prosper,66.68,167.83,108.86,204.12,480.81,Single-ply,SBD,M
Boys,67.13,3,Brock Martin,Argyle,66.22,176.9,92.99,192.78,462.66,Single-ply,SBD,M
Boys,67.13,4,Mario Discua,Nevada Community,66.22,158.76,102.06,176.9,437.72,Single-ply,SBD,M
Boys,67.13,5,Rytwann Lee,Everman,67.13,167.83,86.18,181.44,435.45,Single-ply,SBD,M
Boys,67.13,6,Jose de la Cerda,Bridgeport,64.41,151.95,88.45,163.29,403.7,Single-ply,SBD,M
Boys,67.13,7,Jesus Menjivar,Sanger,62.14,154.22,83.91,158.76,396.89,Single-ply,SBD,M
Boys,67.13,8,Justin Maxey,Nevada Community,63.96,142.88,86.18,149.69,378.75,Single-ply,SBD,M
Boys,67.13,9,Isaac Dickinson,Valley View,66.68,147.42,79.38,149.69,376.48,Single-ply,SBD,M
Boys,67.13,10,Tyler Richards,Nocona,63.5,133.81,81.65,154.22,369.68,Single-ply,SBD,M
Boys,67.13,11,Caleb McKenzie,Castleberry,66.68,140.61,74.84,149.69,365.14,Single-ply,SBD,M
Boys,67.13,12,Javier Garcia #3,Pottsboro,65.77,129.27,81.65,151.95,362.87,Single-ply,SBD,M
Boys,67.13,13,Sergio Portillo,Pilot Point,67.13,117.93,72.57,170.1,360.61,Single-ply,SBD,M
Boys,67.13,14,Jose Noyola,Aubrey,62.6,138.35,77.11,142.88,358.34,Single-ply,SBD,M
Boys,67.13,15,Kevin Romero,Sherman,65.77,115.67,88.45,147.42,351.53,Single-ply,SBD,M
Boys,67.13,16,Jackson Haines,Prosper,63.05,113.4,74.84,138.35,326.59,Single-ply,SBD,M
Boys,67.13,17,Alex Reyes,Castleberry,62.6,111.13,74.84,136.08,322.05,Single-ply,SBD,M
Boys,67.13,18,Charles Martinez,Bridgeport,64.41,113.4,61.23,127.01,301.64,Single-ply,SBD,M
Boys,67.13,19,Aaziah Flores,Everman,66.68,113.4,63.5,124.74,301.64,Single-ply,SBD,M
Boys,67.13,20,Keatyn Eitelman,Pottsboro,61.23,113.4,63.5,115.67,292.57,Single-ply,SBD,M
Boys,67.13,21,Darren Nichols,Pilot Point,61.69,104.33,70.31,117.93,292.57,Single-ply,SBD,M
Boys,67.13,22,Victor Martinez,Pilot Point,64.41,113.4,68.04,111.13,292.57,Single-ply,SBD,M
Boys,67.13,23,Lee Hubbard,Gainesville,65.77,124.74,,,124.74,Single-ply,S,M
Boys,67.13,DQ,Josue Hernandez,Anna,65.32,161.03,95.25,,,Single-ply,SBD,M
Boys,74.84,1,Max Carlile,Plano,74.39,199.58,127.01,210.92,537.51,Single-ply,SBD,M
Boys,74.84,2,Juan DeLeon,Everman,74.84,192.78,113.4,204.12,510.29,Single-ply,SBD,M
Boys,74.84,3,DeVante Clayton,Sherman,73.48,188.24,111.13,188.24,487.61,Single-ply,SBD,M
Boys,74.84,4,Isaac Doggett,Prosper,71.67,172.37,106.59,204.12,483.08,Single-ply,SBD,M
Boys,74.84,5,Michael B Wallace,Sherman,74.84,183.7,104.33,188.24,476.27,Single-ply,SBD,M
Boys,74.84,6,Spencer Neumann,Aubrey,71.21,161.03,99.79,183.7,444.52,Single-ply,SBD,M
Boys,74.84,7,Joseph Quigley,Kennedale,73.03,181.44,97.52,163.29,442.25,Single-ply,SBD,M
Boys,74.84,8,Tony Tijerina,Bridgeport,74.39,158.76,92.99,167.83,419.57,Single-ply,SBD,M
Boys,74.84,9,Sheldon Wingert,Aubrey,72.12,149.69,92.99,172.37,415.04,Single-ply,SBD,M
Boys,74.84,10,Adrian De La Cruz,Pottsboro,73.03,142.88,79.38,154.22,376.48,Single-ply,SBD,M
Boys,74.84,11,Brendene Ramos,Castleberry,73.48,131.54,95.25,149.69,376.48,Single-ply,SBD,M
Boys,74.84,12,Luis Rico,Nocona,73.48,127.01,79.38,170.1,376.48,Single-ply,SBD,M
Boys,74.84,13,Jacob Jeffers,Pottsboro,68.95,142.88,90.72,140.61,374.21,Single-ply,SBD,M
Boys,74.84,14,Justin Ebarb,Nevada Community,73.03,142.88,74.84,136.08,353.8,Single-ply,SBD,M
Boys,74.84,15,Abjose Robles,Everman,73.94,113.4,61.23,147.42,322.05,Single-ply,SBD,M
Boys,74.84,16,Antonio Khier,Pilot Point,68.04,111.13,79.38,120.2,310.71,Single-ply,SBD,M
Boys,74.84,17,Felix Perez,Gainesville,72.57,90.72,52.16,142.88,285.76,Single-ply,SBD,M
Boys,74.84,18,Baul Sallnas,Nevada Community,68.04,142.88,,,142.88,Single-ply,S,M
Boys,74.84,DQ,Anthony Perez,Bridgeport,69.85,127.01,92.99,,,Single-ply,SBD,M
Boys,74.84,DQ,Christian Hanel,Bridgeport,74.84,181.44,111.13,,,Single-ply,SBD,M
Boys,82.1,1,Tanner Hartsfield,Howe,82.1,217.72,136.08,219.99,573.79,Single-ply,SBD,M
Boys,82.1,2,Taylor Barrett,Pilot Point,78.02,215.46,131.54,215.46,562.45,Single-ply,SBD,M
Boys,82.1,3,Andres Perez,Plano,81.65,229.06,138.35,195.04,562.45,Single-ply,SBD,M
Boys,82.1,4,Chon Hernandez,Gainesville,78.02,208.65,124.74,215.46,548.85,Single-ply,SBD,M
Boys,82.1,5,Julian Mendoza,Anna,78.02,201.85,147.42,183.7,532.97,Single-ply,SBD,M
Boys,82.1,6,Nick Golden,Argyle,80.74,197.31,95.25,240.4,532.97,Single-ply,SBD,M
Boys,82.1,7,Nate Browne,Plano,81.19,190.51,129.27,190.51,510.29,Single-ply,SBD,M
Boys,82.1,8,Syler Saenz,Sanger,79.38,181.44,120.2,192.78,494.42,Single-ply,SBD,M
Boys,82.1,9,Mason Riggs,Howe,79.83,195.04,115.67,176.9,487.61,Single-ply,SBD,M
Boys,82.1,10,Amyri Cox,Anna,76.66,170.1,104.33,204.12,478.54,Single-ply,SBD,M
Boys,82.1,11,Naton Edwards,Argyle,78.47,165.56,95.25,183.7,444.52,Single-ply,SBD,M
Boys,82.1,12,Nolan Klinke,Sanger,80.74,170.1,104.33,170.1,444.52,Single-ply,SBD,M
Boys,82.1,13,Will Dow,Aubrey,77.11,158.76,113.4,170.1,442.25,Single-ply,SBD,M
Boys,82.1,14,Steven Pearce,Castleberry,75.75,145.15,90.72,185.97,421.84,Single-ply,SBD,M
Boys,82.1,15,Trenton Gilmore,Pottsboro,80.74,158.76,90.72,163.29,412.77,Single-ply,SBD,M
Boys,82.1,16,Colby White,Bridgeport,78.02,149.69,68.04,181.44,399.16,Single-ply,SBD,M
Boys,82.1,17,Innis Mendoza,Pilot Point,79.83,161.03,113.4,113.4,387.82,Single-ply,SBD,M
Boys,82.1,18,Josh Grimm,Castleberry,80.29,138.35,106.59,124.74,369.68,Single-ply,SBD,M
Boys,82.1,19,Triston Reilly,Sanger,77.56,122.47,83.91,145.15,351.53,Single-ply,SBD,M
Boys,82.1,20,Markos Morales,Whitesboro,78.47,124.74,72.57,151.95,349.27,Single-ply,SBD,M
Boys,82.1,21,Camden Roberston,Prosper,80.29,131.54,72.57,142.88,347,Single-ply,SBD,M
Boys,82.1,22,Brandon Reeves,Krum,81.65,204.12,104.33,,308.44,Single-ply,SB,M
Boys,82.1,23,Thurman Rodriguez,Nevada Community,82.1,102.06,74.84,102.06,278.96,Single-ply,SBD,M
Boys,82.1,DQ,Jc Helpenstell,Howe,81.19,142.88,,,,Single-ply,SBD,M
Boys,82.1,DQ,Billy Goff,Sanger,82.1,197.31,138.35,,,Single-ply,SBD,M
Boys,82.1,DQ,Bailey Mclog,Muenster,76.66,,,,,Single-ply,SBD,M
Boys,82.1,DQ,Bryson Britten,Aubrey,81.19,,,,,Single-ply,SBD,M
Boys,89.81,1,Brandon Murphy,Whitesboro,87.09,217.72,124.74,199.58,542.04,Single-ply,SBD,M
Boys,89.81,2,Kardale Smith,Anna,85.28,201.85,124.74,206.38,532.97,Single-ply,SBD,M
Boys,89.81,3,Haeden Knight,Krum,84.82,213.19,102.06,183.7,498.95,Single-ply,SBD,M
Boys,89.81,4,Logan Pagel,Muenster,83.01,181.44,108.86,190.51,480.81,Single-ply,SBD,M
Boys,89.81,5,Brian Chapa,Castleberry,84.82,167.83,104.33,204.12,476.27,Single-ply,SBD,M
Boys,89.81,6,Brendan Milack,Aubrey,83.46,181.44,102.06,158.76,442.25,Single-ply,SBD,M
Boys,89.81,7,Spencer May,Anna,89.36,151.95,115.67,172.37,439.98,Single-ply,SBD,M
Boys,89.81,8,Desmond Mendoza,Kennedale,85.28,174.63,95.25,167.83,437.72,Single-ply,SBD,M
Boys,89.81,9,Romeo Vargas,Bridgeport,88,165.56,113.4,158.76,437.72,Single-ply,SBD,M
Boys,89.81,10,Devin Miller,Gainesville,85.28,147.42,113.4,170.1,430.91,Single-ply,SBD,M
Boys,89.81,11,Colton Wilson,Nevada Community,84.37,183.7,92.99,151.95,428.64,Single-ply,SBD,M
Boys,89.81,12,Tom Davis #2,Muenster,84.37,181.44,83.91,161.03,426.38,Single-ply,SBD,M
Boys,89.81,13,Brandon Hubert,Pottsboro,87.54,158.76,90.72,170.1,419.57,Single-ply,SBD,M
Boys,89.81,14,Kyle Gray,Pottsboro,87.54,154.22,83.91,172.37,410.5,Single-ply,SBD,M
Boys,89.81,15,Jacob Price,Gainesville,87.09,154.22,83.91,167.83,405.97,Single-ply,SBD,M
Boys,89.81,16,Brooks Coffman,Prosper,88,142.88,102.06,149.69,394.63,Single-ply,SBD,M
Boys,89.81,17,Romario Tobar,Krum,88.45,124.74,72.57,142.88,340.19,Single-ply,SBD,M
Boys,89.81,18,David Fielder,Kennedale,88.9,122.47,61.23,136.08,319.78,Single-ply,SBD,M
Boys,89.81,19,Keaton Robinson,Bridgeport,83.01,161.03,97.52,,258.55,Single-ply,SB,M
Boys,89.81,20,Daniel Lackey,Krum,83.01,136.08,,,136.08,Single-ply,S,M
Boys,99.79,1,Jonathan Havis,Sanger,99.34,242.67,158.76,242.67,644.1,Single-ply,SBD,M
Boys,99.79,2,Cruz Villegas,Everman,98.43,226.8,124.74,242.67,594.21,Single-ply,SBD,M
Boys,99.79,3,Zach Helton,Plano,95.25,240.4,111.13,238.14,589.67,Single-ply,SBD,M
Boys,99.79,4,Ricardo Pena #2,Kennedale,95.25,254.01,131.54,199.58,585.13,Single-ply,SBD,M
Boys,99.79,5,Cameron Hanna,Kennedale,98.88,217.72,115.67,235.87,569.26,Single-ply,SBD,M
Boys,99.79,6,Jaylon Sparks,Everman,96.16,204.12,142.88,208.65,555.65,Single-ply,SBD,M
Boys,99.79,7,Preston Pfeiter,Prosper,99.34,213.19,147.42,195.04,555.65,Single-ply,SBD,M
Boys,99.79,8,Chase Harvey,Howe,93.89,204.12,129.27,204.12,537.51,Single-ply,SBD,M
Boys,99.79,9,Sam Salas,Everman,99.34,204.12,113.4,208.65,526.17,Single-ply,SBD,M
Boys,99.79,10,Andy Moreno,Plano,98.43,226.8,133.81,147.42,508.02,Single-ply,SBD,M
Boys,99.79,11,Jacob Slimp,Bridgeport,96.62,190.51,117.93,181.44,489.88,Single-ply,SBD,M
Boys,99.79,12,Kylar Pendergraft,Nocona,91.63,199.58,102.06,181.44,483.08,Single-ply,SBD,M
Boys,99.79,13,Ismael Banda,Castleberry,99.34,176.9,117.93,176.9,471.74,Single-ply,SBD,M
Boys,99.79,14,Jesse Diaz,Kennedale,99.34,167.83,113.4,174.63,455.86,Single-ply,SBD,M
Boys,99.79,15,Aidan Carr,Prosper,94.8,165.56,108.86,174.63,449.06,Single-ply,SBD,M
Boys,99.79,16,Nathan Duffee,Howe,98.88,172.37,102.06,172.37,446.79,Single-ply,SBD,M
Boys,99.79,17,Mason Holzer,Sanger,94.35,167.83,111.13,165.56,444.52,Single-ply,SBD,M
Boys,99.79,18,Connor Lynch #2,Pilot Point,96.16,181.44,97.52,163.29,442.25,Single-ply,SBD,M
Boys,99.79,19,Brandon Kiernan,Kennedale,92.99,131.54,136.08,170.1,437.72,Single-ply,SBD,M
Boys,99.79,20,Alex Saucedo,Gainesville,95.25,154.22,115.67,165.56,435.45,Single-ply,SBD,M
Boys,99.79,21,Bradley Boyd,Krum,97.52,147.42,79.38,181.44,408.23,Single-ply,SBD,M
Boys,99.79,22,Jason Daughtry,Nocona,95.25,154.22,86.18,163.29,403.7,Single-ply,SBD,M
Boys,99.79,23,Shaun Escobedo,Gainesville,97.98,151.95,79.38,172.37,403.7,Single-ply,SBD,M
Boys,99.79,24,Evan Billmeier,Pilot Point,97.07,142.88,106.59,149.69,399.16,Single-ply,SBD,M
Boys,99.79,25,Oscar Morquecho,Everman,95.25,142.88,77.11,142.88,362.87,Single-ply,SBD,M
Boys,99.79,26,Nicholas Dunn,Bridgeport,99.79,117.93,61.23,138.35,317.51,Single-ply,SBD,M
Boys,99.79,27,Marshal Upshaw,Plano,93.89,215.46,,,215.46,Single-ply,S,M
Boys,99.79,DQ,Quaylynn Burkes,Sanger,96.16,,,,,Single-ply,SBD,M
Boys,99.79,DQ,Parker Walterschied,Gainesville,99.79,,,,,Single-ply,SBD,M
Boys,99.79,DQ,Demetri Hendrick,Bridgeport,97.52,,,,,Single-ply,SBD,M
Boys,109.77,1,Colton Hall,Kennedale,106.14,263.08,154.22,235.87,653.17,Single-ply,SBD,M
Boys,109.77,2,Asael Lagos,Gainesville,107.95,240.4,129.27,260.82,630.49,Single-ply,SBD,M
Boys,109.77,3,Ezekiel Veal,Everman,109.32,240.4,145.15,240.4,625.96,Single-ply,SBD,M
Boys,109.77,4,Blake Tredway,Anna,105.23,254.01,142.88,226.8,623.69,Single-ply,SBD,M
Boys,109.77,5,Nathan Omayebu,Sherman,108.86,235.87,142.88,217.72,596.47,Single-ply,SBD,M
Boys,109.77,6,Chris Serwanga,Kennedale,107.95,238.14,120.2,190.51,548.85,Single-ply,SBD,M
Boys,109.77,7,Daniel Hernandez,Everman,106.59,215.46,129.27,192.78,537.51,Single-ply,SBD,M
Boys,109.77,8,Jeral Steward,Everman,105.69,204.12,133.81,192.78,530.7,Single-ply,SBD,M
Boys,109.77,9,Malyk Newsome,Everman,100.7,181.44,129.27,213.19,523.9,Single-ply,SBD,M
Boys,109.77,10,Jack Atkins,Gainesville,102.97,190.51,106.59,195.04,492.15,Single-ply,SBD,M
Boys,109.77,11,Jessie Cowley,Nevada Community,103.87,195.04,104.33,176.9,476.27,Single-ply,SBD,M
Boys,109.77,12,Chris Garrison,Howe,101.15,183.7,117.93,172.37,474,Single-ply,SBD,M
Boys,109.77,13,Hayden Hudson,Kennedale,102.06,170.1,95.25,181.44,446.79,Single-ply,SBD,M
Boys,109.77,14,Ben Kipenski,Prosper,108.41,161.03,108.86,174.63,444.52,Single-ply,SBD,M
Boys,109.77,15,Connor Laughlin,Aubrey,102.51,158.76,106.59,165.56,430.91,Single-ply,SBD,M
Boys,109.77,16,Casey Pounds,Lindsay,102.51,158.76,81.65,163.29,403.7,Single-ply,SBD,M
Boys,109.77,DQ,Josh Perry,Krum,107.05,151.95,,,,Single-ply,SBD,M
Boys,109.77,DQ,Justin Nichols,Sherman,102.97,,,,,Single-ply,SBD,M
Boys,109.77,DQ,Mikael Conn,Aubrey,104.33,195.04,,,,Single-ply,SBD,M
Boys,109.77,DQ,Hunter Coleman,Bridgeport,107.95,,,,,Single-ply,SBD,M
Boys,109.77,DQ,Gonsalo Ibarra,Bridgeport,105.69,,,,,Single-ply,SBD,M
Boys,124.74,1,Jerry Daniel,Nevada Community,123.83,347,226.8,274.42,848.22,Single-ply,SBD,M
Boys,124.74,2,Quincy Warren,Everman,116.57,249.48,158.76,283.5,691.73,Single-ply,SBD,M
Boys,124.74,3,Austin Norton,Nevada Community,121.11,229.06,142.88,242.67,614.62,Single-ply,SBD,M
Boys,124.74,4,Eric Stonechek,Bridgeport,124.74,219.99,170.1,217.72,607.81,Single-ply,SBD,M
Boys,124.74,5,Fred Reyna,Aubrey,120.2,249.48,124.74,231.33,605.55,Single-ply,SBD,M
Boys,124.74,6,Dillion Garcia,Anna,115.21,217.72,154.22,204.12,576.06,Single-ply,SBD,M
Boys,124.74,7,Brian Monroy,Gainesville,112.04,229.06,136.08,204.12,569.26,Single-ply,SBD,M
Boys,124.74,8,Hayden Hayes,Sherman,117.93,208.65,127.01,226.8,562.45,Single-ply,SBD,M
Boys,124.74,9,Alex Escandon,Nevada Community,115.21,206.38,140.61,210.92,557.92,Single-ply,SBD,M
Boys,124.74,10,Carson Shaffer,Prosper,110.68,201.85,142.88,204.12,548.85,Single-ply,SBD,M
Boys,124.74,11,Ty Rockins,Sherman,118.39,215.46,113.4,215.46,544.31,Single-ply,SBD,M
Boys,124.74,12,Eddie Veal,Everman,122.47,215.46,133.81,188.24,537.51,Single-ply,SBD,M
Boys,124.74,13,Esteban Cervantes,Valley View,115.21,233.6,113.4,181.44,528.44,Single-ply,SBD,M
Boys,124.74,14,Kevin Johnson #5,Plano,114.31,192.78,138.35,190.51,521.63,Single-ply,SBD,M
Boys,124.74,15,Gabriel Lutz,Nevada Community,120.2,201.85,122.47,195.04,519.36,Single-ply,SBD,M
Boys,124.74,16,LaDerius Young,Everman,119.75,183.7,142.88,190.51,517.1,Single-ply,SBD,M
Boys,124.74,17,Bryce Hegg,Argyle,117.93,201.85,102.06,210.92,514.83,Single-ply,SBD,M
Boys,124.74,18,Efren Solorzano,Plano,114.31,195.04,131.54,183.7,510.29,Single-ply,SBD,M
Boys,124.74,19,Fletcher Six,Nocona,111.58,192.78,102.06,204.12,498.95,Single-ply,SBD,M
Boys,124.74,20,Branden Seaberry,Everman,116.57,226.8,111.13,158.76,496.68,Single-ply,SBD,M
Boys,124.74,21,Dalton Hummel,Plano,115.67,165.56,136.08,183.7,485.34,Single-ply,SBD,M
Boys,124.74,22,Rudy Vazquez,Sherman,119.29,183.7,117.93,183.7,485.34,Single-ply,SBD,M
Boys,124.74,23,Olaf Coleman,Castleberry,124.28,158.76,129.27,195.04,483.08,Single-ply,SBD,M
Boys,124.74,24,Reese Greenwood,Pottsboro,115.21,181.44,113.4,185.97,480.81,Single-ply,SBD,M
Boys,124.74,25,Dylan Morgan,Aubrey,124.28,174.63,120.2,174.63,469.47,Single-ply,SBD,M
Boys,124.74,26,Deuce Glasker,Nocona,111.58,181.44,102.06,147.42,430.91,Single-ply,SBD,M
Boys,124.74,27,Jarron Ing,Howe,124.28,176.9,97.52,124.74,399.16,Single-ply,SBD,M
Boys,124.74,28,Quinton Williams,Prosper,121.56,120.2,83.91,142.88,347,Single-ply,SBD,M
Boys,124.74+,1,Travis Shouse,Anna,146.51,331.12,197.31,272.16,800.59,Single-ply,SBD,M
Boys,124.74+,2,Caleb Reed,Everman,136.98,324.32,172.37,272.16,768.84,Single-ply,SBD,M
Boys,124.74+,3,Carlos Giron,Pilot Point,138.8,263.08,190.51,249.48,703.07,Single-ply,SBD,M
Boys,124.74+,4,Caleb Jennings,Bridgeport,135.62,258.55,172.37,242.67,673.58,Single-ply,SBD,M
Boys,124.74+,5,Jaylin Hendrix,Everman,146.51,238.14,176.9,249.48,664.51,Single-ply,SBD,M
Boys,124.74+,6,Josh Schnitker,Sherman,146.96,249.48,161.03,238.14,648.64,Single-ply,SBD,M
Boys,124.74+,7,Gage McCarty,Sanger,126.1,249.48,170.1,213.19,632.76,Single-ply,SBD,M
Boys,124.74+,8,Miguel Rodriguez,Gainesville,144.7,251.74,147.42,219.99,619.15,Single-ply,SBD,M
Boys,124.74+,9,Damon Lippert,Sherman,140.16,238.14,156.49,215.46,610.08,Single-ply,SBD,M
Boys,124.74+,10,Ak Inyang,Plano,145.15,215.46,161.03,226.8,603.28,Single-ply,SBD,M
Boys,124.74+,11,Zane Howard,Krum,144.24,254.01,129.27,190.51,573.79,Single-ply,SBD,M
Boys,124.74+,12,Jordan Redfearn,Aubrey,134.72,226.8,122.47,215.46,564.72,Single-ply,SBD,M
Boys,124.74+,13,Cruz Tobar,Sherman,167.83,224.53,136.08,183.7,544.31,Single-ply,SBD,M
Boys,124.74+,14,Tyler Yzaguirre,Bridgeport,128.37,204.12,151.95,183.7,539.77,Single-ply,SBD,M
Boys,124.74+,15,Mason McCall,Pottsboro,136.98,226.8,117.93,183.7,528.44,Single-ply,SBD,M
Boys,124.74+,16,Brenden Gonzalez,Gainesville,131.54,195.04,95.25,197.31,487.61,Single-ply,SBD,M
Boys,124.74+,17,Brady York,Nocona,127.46,158.76,111.13,181.44,451.32,Single-ply,SBD,M
Boys,124.74+,18,Chris Kousis,Gainesville,156.49,172.37,90.72,176.9,439.98,Single-ply,SBD,M
Boys,124.74+,19,Koby Williams,Pottsboro,131.54,158.76,106.59,172.37,437.72,Single-ply,SBD,M
Boys,124.74+,20,Quintana Reyes,Pilot Point,148.32,156.49,120.2,158.76,435.45,Single-ply,SBD,M
Boys,124.74+,21,James Manuel,Gainesville,140.16,124.74,108.86,172.37,405.97,Single-ply,SBD,M
Boys,124.74+,DQ,Tk Watson,Sherman,126.55,,,,,Single-ply,SBD,M
