Name,BodyweightKg,WeightClassKg,Division,Sex,Team,Bench1Kg,Bench2Kg,Bench3Kg,Bench4Kg,Best3BenchKg,TotalKg,Event,Equipment,Place
Hung Pham,,52,Open,M,,122.47,131.54,138.35,,138.35,138.35,B,Multi-ply,1
Andrew Hrencher,,52,Open,M,,115.67,-122.47,-124.74,,115.67,115.67,B,Multi-ply,2
Janet Faraone,,52,Open,F,,106.59,113.4,-120.2,-120.2,113.4,113.4,B,Multi-ply,3
Steve Petrencak,,56,Open,M,,142.88,149.69,154.22,,154.22,154.22,B,Multi-ply,1
Chad Jasper,,56,Open,M,,136.08,-142.88,142.88,,142.88,142.88,B,Multi-ply,2
Robert Leoni,,56,Open,M,,-102.06,102.06,-113.4,,102.06,102.06,B,Multi-ply,3
Nick Hatch,,60,Open,M,,170.1,181.44,183.71,-185.97,183.71,183.71,B,Multi-ply,1
Tina Rinehart,59.15,60,Open,F,,161.03,167.83,-176.9,176.9,167.83,167.83,B,Multi-ply,2
Joe Smith,,60,Open,M,,163.29,-170.1,-170.1,,163.29,163.29,B,Multi-ply,3
Charles Johnson,,60,Open,M,,117.93,129.27,-136.08,,129.27,129.27,B,Multi-ply,4
Eric Knight,,60,Open,M,,-158.76,-161.03,,,,,B,Multi-ply,DQ
Brian Schwab,,67.5,Open,M,,201.85,-206.38,-215.46,,201.85,201.85,B,Multi-ply,1
Taylor Tom,,67.5,Open,M,,192.78,-201.85,-201.85,,192.78,192.78,B,Multi-ply,2
Joe Mukite,,67.5,Open,M,,185.97,-192.78,-195.04,,185.97,185.97,B,Multi-ply,3
Allan Myszka,,67.5,Open,M,,183.71,-185.97,-185.97,,183.71,183.71,B,Multi-ply,4
Joe Mazza,,75,Open,M,,238.14,-249.48,-249.48,,238.14,238.14,B,Multi-ply,1
Lance Kirchner,73.03,75,Open,M,,219.99,-226.8,-238.14,,219.99,219.99,B,Multi-ply,2
Joe Luther,,75,Open,M,,197.31,204.12,208.65,,208.65,208.65,B,Multi-ply,3
August Clark Jr,,75,Open,M,,206.38,-229.06,-229.06,,206.38,206.38,B,Multi-ply,4
Irwin Chang,,75,Open,M,,-174.63,174.63,181.44,,181.44,181.44,B,Multi-ply,5
Kent Spires,,82.5,Open,M,,226.8,-231.33,-233.6,,226.8,226.8,B,Multi-ply,1
Phil Harrington #1,,82.5,Open,M,,213.19,-226.8,-226.8,,213.19,213.19,B,Multi-ply,2
Will Lynch,,82.5,Open,M,,-226.8,-226.8,,,,,B,Multi-ply,DQ
Leonard McCormick,,82.5,Open,M,,-226.8,-226.8,,,,,B,Multi-ply,DQ
Jim Kilts,,82.5,Open,M,,-226.8,-249.48,,,,,B,Multi-ply,DQ
Jeff McVicar,,90,Open,M,,272.16,283.5,-294.84,-310.71,283.5,283.5,B,Multi-ply,1
Kenneth Palazola,,90,Open,M,,265.35,-283.5,-285.76,,265.35,265.35,B,Multi-ply,2
Arnold Coleman,,90,Open,M,,238.14,254.01,-260.82,,254.01,254.01,B,Multi-ply,3
Dennis Rickens,,90,Open,M,,238.14,254.01,-267.62,,254.01,254.01,B,Multi-ply,4
Stephen Webb,,90,Open,M,,-226.8,226.8,-260.82,,226.8,226.8,B,Multi-ply,5
Ralph Young,,100,Open,M,,249.48,258.55,260.82,,260.82,260.82,B,Multi-ply,1
Mark Carter,,100,Open,M,,-256.28,256.28,-265.35,,256.28,256.28,B,Multi-ply,2
Paul Bossi,,100,Open,M,,226.8,249.48,254.01,,254.01,254.01,B,Multi-ply,3
Bart Kelley,,100,Open,M,,238.14,251.74,-258.55,,251.74,251.74,B,Multi-ply,4
Keith Parrish,,100,Open,M,,249.48,-260.82,-260.82,,249.48,249.48,B,Multi-ply,5
Bill Carpenter,,110,Open,M,,285.76,308.44,-317.52,,308.44,308.44,B,Multi-ply,1
Jason Jackson #7,,110,Open,M,,272.16,285.76,294.84,,294.84,294.84,B,Multi-ply,2
Brad Kelley,,110,Open,M,,281.23,-292.57,-292.57,,281.23,281.23,B,Multi-ply,3
Rob Capozzolo,,110,Open,M,,260.82,-290.3,-290.3,,260.82,260.82,B,Multi-ply,4
Bobby Fields,,110,Open,M,,-317.52,-317.52,-317.52,,,,B,Multi-ply,DQ
Ben White #1,,125,Open,M,,299.37,-322.05,-322.05,,299.37,299.37,B,Multi-ply,1
Scott Smith #1,,125,Open,M,,272.16,290.3,-299.37,,290.3,290.3,B,Multi-ply,2
Paul Springer,,125,Open,M,,288.03,-299.37,-301.64,,288.03,288.03,B,Multi-ply,3
Joe Ladnier,114.31,125,Open,M,,283.5,-301.64,-301.64,,283.5,283.5,B,Multi-ply,4
Noel Levario,,125,Open,M,,272.16,-288.03,-294.84,,272.16,272.16,B,Multi-ply,5
Vincent Dizenzo,136.99,140,Open,M,,294.84,319.78,-328.85,,319.78,319.78,B,Multi-ply,1
Brian Riley,,140,Open,M,,317.52,-333.39,-333.39,,317.52,317.52,B,Multi-ply,2
Tiny Meeker,,140,Open,M,,-319.78,-319.78,,,,,B,Single-ply,DQ
Tom Manno,,140,Open,M,,-319.78,-319.78,,,,,B,Multi-ply,DQ
Paul Key,,140,Open,M,,-294.84,-303.91,,,,,B,Multi-ply,DQ
Scot Mendelson,140.89,140+,Open,M,,-374.21,374.21,-396.89,-408.23,374.21,374.21,B,Multi-ply,1
Mike Miller,187.42,140+,Open,M,,-331.12,331.12,-365.14,,331.12,331.12,B,Multi-ply,2
Tom Skiver,,140+,Open,M,,-299.37,303.91,-317.52,,303.91,303.91,B,Multi-ply,3
John Galligan,,140+,Open,M,,-317.52,-333.39,,,,,B,Multi-ply,DQ
Gene Rychlak,,140+,Open,M,,-351.53,-351.53,,,,,B,Multi-ply,DQ
Juan Sotomayer,,,Police/Fire,M,Fire,-127.01,-127.01,,,,,B,Multi-ply,DQ
Dave Bosse,,,Police/Fire,M,Fire,-147.42,147.42,,,147.42,147.42,B,Multi-ply,2
Anton White,,,Police/Fire,M,Police,149.69,158.76,,,158.76,158.76,B,Multi-ply,1
Al Kennedy,,,Police/Fire,M,Police,-170.1,170.1,,,170.1,170.1,B,Multi-ply,1
Leon Conley,,,Police/Fire,M,Fire,181.44,190.51,,,190.51,190.51,B,Multi-ply,2
Paul Basic,,,Police/Fire,M,Fire,183.71,192.78,,,192.78,192.78,B,Multi-ply,2
LeeRoy Banks,,,Police/Fire,M,Police,195.04,208.65,,,208.65,208.65,B,Multi-ply,1
Vic Honsik,,,Police/Fire,M,Fire,204.12,-229.06,,,204.12,204.12,B,Multi-ply,2
Rob Luyando,,,Police/Fire,M,Police,215.46,229.06,,,229.06,229.06,B,Multi-ply,1
Tommy Harrison,,,Police/Fire,M,Police,217.72,-229.06,,,217.72,217.72,B,Multi-ply,1
