Division,WeightClassKg,Place,Name,Team,BodyweightKg,Best3SquatKg,Best3BenchKg,Best3DeadliftKg,TotalKg,Equipment,Event,Sex
Girls,44.23,1,Kaila Gonzalez,McAllen,43.23,102.06,52.16,99.79,254.01,Single-ply,SBD,F
Girls,44.23,2,Tekila Cantu,McAllen Memorial,40.78,90.72,31.75,90.72,213.19,Single-ply,SBD,F
Girls,44.23,3,Keyshley Ramos,La Joya Juarez-Lincoln,37.29,86.18,27.22,79.38,192.78,Single-ply,SBD,F
Girls,44.23,4,Yhasiri Reyna,La Joya,43.45,56.7,22.68,68.04,147.42,Single-ply,SBD,F
Girls,47.85,1,Daniela Echavarria,McAllen,47.67,127.01,58.97,133.81,319.78,Single-ply,SBD,F
Girls,47.85,2,Sabrina Espinoza,McAllen,46.67,113.4,68.04,122.47,303.91,Single-ply,SBD,F
Girls,47.85,3,Deili Silva,La Joya Juarez-Lincoln,47.13,70.31,40.82,92.99,204.12,Single-ply,SBD,F
Girls,47.85,4,Ariel Rendon,PSJA,47.49,74.84,38.56,83.91,197.31,Single-ply,SBD,F
Girls,47.85,5,Jennifer Cervantes,McAllen Rowe,45.45,61.23,27.22,61.23,149.69,Single-ply,SBD,F
Girls,47.85,6,Tabitha Prado,La Joya,47.58,63.5,31.75,54.43,149.69,Single-ply,SBD,F
Girls,47.85,DQ,Daniela Plata,McAllen,47.13,102.06,,,,Single-ply,SBD,F
Girls,51.94,1,Munoz Mia,McAllen Memorial,50.12,111.13,63.5,111.13,285.76,Single-ply,SBD,F
Girls,51.94,2,Monica Flores,McAllen Rowe,49.53,68.04,27.22,90.72,185.97,Single-ply,SBD,F
Girls,51.94,3,Yovana Perez,La Joya,48.99,54.43,31.75,61.23,147.42,Single-ply,SBD,F
Girls,51.94,DQ,Kc Aguilera,Mission,50.3,131.54,,,,Single-ply,SBD,F
Girls,56.02,1,Rhyauna Lee,McAllen Memorial,55.66,131.54,79.38,138.35,349.27,Single-ply,SBD,F
Girls,56.02,2,Josefina Bueno,McAllen Memorial,54.52,122.47,61.23,129.27,312.98,Single-ply,SBD,F
Girls,56.02,3,Faith Escamilla,McAllen Memorial,55.88,124.74,49.9,136.08,310.71,Single-ply,SBD,F
Girls,56.02,4,Adamari Martinez,PSJA,55.61,131.54,43.09,131.54,306.17,Single-ply,SBD,F
Girls,56.02,5,Sheyla Cantu,La Joya Juarez-Lincoln,52.44,104.33,54.43,124.74,283.5,Single-ply,SBD,F
Girls,56.02,6,Ayisha Recio,PSJA,55.29,120.2,49.9,108.86,278.96,Single-ply,SBD,F
Girls,56.02,7,Daniela Diaz,McAllen Rowe,55.16,104.33,47.63,83.91,235.87,Single-ply,SBD,F
Girls,56.02,8,Brianna Rodriguez #2,PSJA,55.93,92.99,43.09,97.52,233.6,Single-ply,SBD,F
Girls,56.02,9,Cassidy Gomez,McAllen Rowe,53.34,77.11,31.75,83.91,192.78,Single-ply,SBD,F
Girls,56.02,DQ,Miranda Troche,La Joya,55.97,81.65,,,,Single-ply,SBD,F
Girls,56.02,DQ,Venya Gonzalez,La Joya,55.97,86.18,,,,Single-ply,SBD,F
Girls,56.02,DQ,Katarina Moseley,McAllen,54.7,131.54,,,,Single-ply,SBD,F
Girls,56.02,DQ,Val Cantu,PSJA North,54.43,61.23,,,,Single-ply,SBD,F
Girls,56.02,DQ,Kylony Loredo,McAllen,53.48,,,,,Single-ply,SBD,F
Girls,60.1,1,Cassandra Vargas,PSJA North,60.1,156.49,79.38,138.35,374.21,Single-ply,SBD,F
Girls,60.1,2,Janessa Campos,PSJA North,57.47,149.69,77.11,108.86,335.66,Single-ply,SBD,F
Girls,60.1,3,Luisa Rodriguez,PSJA,59.92,142.88,58.97,127.01,328.85,Single-ply,SBD,F
Girls,60.1,4,Valeria Guerra,Mission,58.01,124.74,58.97,133.81,317.51,Single-ply,SBD,F
Girls,60.1,5,Crysania Zimmerman,McAllen Rowe,57.11,63.5,34.02,88.45,185.97,Single-ply,SBD,F
Girls,67.36,1,Angela Elvira,PSJA,66.63,156.49,74.84,161.03,392.36,Single-ply,SBD,F
Girls,67.36,2,Jacklyn Calderon,PSJA North,66.86,156.49,68.04,138.35,362.87,Single-ply,SBD,F
Girls,67.36,3,Lili Bradford,McAllen Memorial,67.09,142.88,77.11,142.88,362.87,Single-ply,SBD,F
Girls,67.36,4,Bianca Rosales,Mission,65.18,151.95,72.57,133.81,358.34,Single-ply,SBD,F
Girls,67.36,5,Alyssa de la Garza,McAllen Rowe,64.64,127.01,63.5,124.74,315.25,Single-ply,SBD,F
Girls,67.36,6,Jessica Montes,McAllen Memorial,66.27,131.54,61.23,122.47,315.25,Single-ply,SBD,F
Girls,67.36,7,Alexia Rosas,La Joya Juarez-Lincoln,66.45,122.47,61.23,122.47,306.17,Single-ply,SBD,F
Girls,67.36,8,Emily Longoria,Mission,63.59,115.67,56.7,124.74,297.1,Single-ply,SBD,F
Girls,67.36,9,Jennifer Duarte,McAllen,65.86,117.93,43.09,122.47,283.5,Single-ply,SBD,F
Girls,67.36,10,Emily Aleman,PSJA,65.95,99.79,49.9,104.33,254.01,Single-ply,SBD,F
Girls,67.36,11,Aaliyah Logan,Mission,65.14,92.99,47.63,102.06,242.67,Single-ply,SBD,F
Girls,67.36,12,Aaliyah Aguirre,La Joya Juarez-Lincoln,63.87,83.91,45.36,81.65,210.92,Single-ply,SBD,F
Girls,67.36,13,Mya Belton,Mission,63.05,95.25,36.29,74.84,206.38,Single-ply,SBD,F
Girls,67.36,DQ,Evelyn Cantu,PSJA,65.95,99.79,,,,Single-ply,SBD,F
Girls,67.36,DQ,Daniela Lechuga,Mission,60.65,74.84,,,,Single-ply,SBD,F
Girls,67.36,DQ,Alyssa Moreno,McAllen Memorial,66.59,165.56,,,,Single-ply,SBD,F
Girls,67.36,DQ,Natalie Trevino,PSJA North,65.45,99.79,,,,Single-ply,SBD,F
Girls,75.07,1,Isabella Contreras,McAllen,70.67,226.8,142.88,149.69,519.36,Single-ply,SBD,F
Girls,75.07,2,Keyla Puente,La Joya,74.07,199.58,70.31,174.63,444.52,Single-ply,SBD,F
Girls,75.07,3,Alyssa Alvarado,McAllen Memorial,71.44,142.88,68.04,145.15,356.07,Single-ply,SBD,F
Girls,75.07,4,Kassandra DeLeon,PSJA North,74.93,122.47,61.23,136.08,319.78,Single-ply,SBD,F
Girls,75.07,5,Daisy Mendez,McAllen,71.44,129.27,52.16,111.13,292.57,Single-ply,SBD,F
Girls,75.07,6,Anastasia Garcia,La Joya,70.26,117.93,52.16,120.2,290.3,Single-ply,SBD,F
Girls,75.07,7,Leslie Partida,La Joya Juarez-Lincoln,74.07,124.74,49.9,115.67,290.3,Single-ply,SBD,F
Girls,75.07,8,Samarah Contreras,PSJA,73.71,97.52,43.09,111.13,251.74,Single-ply,SBD,F
Girls,75.07,9,Maria Magana,Mission,70.03,95.25,40.82,102.06,238.14,Single-ply,SBD,F
Girls,75.07,10,Brenda Cervantes,Mission,68.99,92.99,31.75,97.52,222.26,Single-ply,SBD,F
Girls,75.07,11,Galilea Vargas,La Joya,68.31,86.18,36.29,97.52,219.99,Single-ply,SBD,F
Girls,75.07,DQ,Mariana Juarez,PSJA North,72.57,115.67,54.43,,,Single-ply,SBD,F
Girls,82.33,1,Jeweliana Rosas,La Joya Juarez-Lincoln,79.65,154.22,77.11,149.69,381.02,Single-ply,SBD,F
Girls,82.33,2,Leticia Flores,PSJA North,80.24,129.27,77.11,136.08,342.46,Single-ply,SBD,F
Girls,82.33,3,Monika Davila,La Joya Juarez-Lincoln,79.56,111.13,52.16,106.59,269.89,Single-ply,SBD,F
Girls,90.04,1,Kim Junco,McAllen Memorial,89.09,188.24,81.65,179.17,449.06,Single-ply,SBD,F
Girls,90.04,2,Audrey Estevanes,PSJA,89.04,133.81,63.5,138.35,335.66,Single-ply,SBD,F
Girls,90.04,3,Alexia Guerrero,McAllen,88,133.81,63.5,129.27,326.59,Single-ply,SBD,F
Girls,90.04,4,Lori Uvalle,PSJA North,88.04,124.74,63.5,133.81,322.05,Single-ply,SBD,F
Girls,90.04,5,Kimberly Guerra,PSJA,89.36,133.81,63.5,124.74,322.05,Single-ply,SBD,F
Girls,90.04,6,Gardenia Valdez,Mission,88.5,122.47,56.7,124.74,303.91,Single-ply,SBD,F
Girls,90.04,7,Beth Moreno,McAllen Rowe,84.91,122.47,56.7,122.47,301.64,Single-ply,SBD,F
Girls,90.04,DQ,Leticia Flores,PSJA,83.69,117.93,54.43,,,Single-ply,SBD,F
Girls,100.02,1,Erika Guerrero,Mission,99.61,201.85,81.65,142.88,426.38,Single-ply,SBD,F
Girls,100.02,2,Valeria Santiago,McAllen Memorial,99.06,167.83,88.45,147.42,403.7,Single-ply,SBD,F
Girls,100.02,3,Brisa Barrientos,La Joya,97.66,161.03,70.31,161.03,392.36,Single-ply,SBD,F
Girls,100.02,4,Angellie Macias,McAllen Rowe,98.47,154.22,65.77,149.69,369.68,Single-ply,SBD,F
Girls,100.02,5,Neylie Chavez,La Joya Juarez-Lincoln,91.26,151.95,74.84,136.08,362.87,Single-ply,SBD,F
Girls,100.02,6,Anyah Brown,PSJA North,96.21,127.01,61.23,111.13,299.37,Single-ply,SBD,F
Girls,100.02,7,Paloma Sanmeigo,PSJA North,99.84,111.13,65.77,117.93,294.84,Single-ply,SBD,F
Girls,117.71,1,Alysha Torres,PSJA North,111.36,219.99,79.38,156.49,455.86,Single-ply,SBD,F
Girls,117.71,2,Leah Cantu,McAllen Memorial,113.08,151.95,97.52,129.27,378.75,Single-ply,SBD,F
Girls,117.71,3,America Alvarez,McAllen,102.74,131.54,63.5,106.59,301.64,Single-ply,SBD,F
Girls,117.71,4,Tara Torres,McAllen,106.05,117.93,52.16,104.33,274.42,Single-ply,SBD,F
Girls,117.71+,1,Nayely Leyva,La Joya,118.16,131.54,61.23,140.61,333.39,Single-ply,SBD,F
