Division,WeightClassKg,Place,Name,Team,BodyweightKg,Best3SquatKg,Best3BenchKg,Best3DeadliftKg,TotalKg,Equipment,Event,Sex
Boys,51.71,1,Daniel Valenzuela,Pecos,50.35,111.13,52.16,113.4,276.69,Single-ply,SBD,M
Boys,51.71,2,Kevin Gonzales,Fort Stockton,49.8,86.18,54.43,108.86,249.48,Single-ply,SBD,M
Boys,51.71,3,Danny Nicar,Monahans,38.46,49.9,31.75,63.5,145.15,Single-ply,SBD,M
Boys,51.71,4,Raymond Barnett,Kermit,39.01,52.16,24.95,56.7,133.81,Single-ply,SBD,M
Boys,55.79,1,Nick Ybarra,Pecos,55.79,124.74,72.57,131.54,328.85,Single-ply,SBD,M
Boys,55.79,2,Israel Celaya,Fort Stockton,55.7,124.74,58.97,127.01,310.71,Single-ply,SBD,M
Boys,55.79,DQ,Miguel Oyervides,Fort Stockton,55.25,113.4,,,,Single-ply,SBD,M
Boys,55.79,DQ,Darian Vidana,Monahans,54.34,136.08,,,,Single-ply,SBD,M
Boys,59.87,1,Justin Workman,Pecos,58.51,117.93,72.57,138.35,328.85,Single-ply,SBD,M
Boys,59.87,2,Brian Venegas,Monahans,58.51,122.47,83.91,117.93,324.32,Single-ply,SBD,M
Boys,59.87,3,Dallas Bowden,Monahans,59.78,117.93,63.5,136.08,317.51,Single-ply,SBD,M
Boys,59.87,4,Gian Cruz,Monahans,56.61,104.33,56.7,127.01,288.03,Single-ply,SBD,M
Boys,59.87,5,Avan Feyry,Fort Stockton,58.97,83.91,58.97,145.15,288.03,Single-ply,SBD,M
Boys,67.13,1,Matt Gonzales,Fort Stockton,67.13,156.49,83.91,176.9,417.3,Single-ply,SBD,M
Boys,67.13,2,Edward Lumbreras,Fort Stockton,63.41,136.08,88.45,167.83,392.36,Single-ply,SBD,M
Boys,67.13,3,Albert Garcia,Fort Stockton,63.87,138.35,81.65,142.88,362.87,Single-ply,SBD,M
Boys,67.13,4,Keele Valenzuela,Kermit,60.69,142.88,74.84,142.88,360.61,Single-ply,SBD,M
Boys,67.13,5,Alberto Gonzales,Fort Stockton,63.96,115.67,70.31,140.61,326.59,Single-ply,SBD,M
Boys,67.13,6,Ernest Villanueva,Fort Stockton,61.6,124.74,63.5,127.01,315.25,Single-ply,SBD,M
Boys,67.13,7,David Bislar,Fort Stockton,67.04,106.59,61.23,120.2,288.03,Single-ply,SBD,M
Boys,67.13,8,Joseph Bustamante,Kermit,63.41,95.25,63.5,113.4,272.16,Single-ply,SBD,M
Boys,67.13,9,Benito Juarez,Kermit,66.59,83.91,52.16,108.86,244.94,Single-ply,SBD,M
Boys,67.13,10,Joseph Melendez,Kermit,64.41,97.52,63.5,,161.03,Single-ply,SB,M
Boys,67.13,DQ,Cody Propst,Fort Stockton,61.69,129.27,,,,Single-ply,SB,M
Boys,74.84,1,Bubba Boyett,Monahans,71.58,172.37,95.25,172.37,439.98,Single-ply,SBD,M
Boys,74.84,2,Ben Rodriguez,Fort Stockton,71.58,154.22,83.91,163.29,401.43,Single-ply,SBD,M
Boys,74.84,3,AJ Sanchez,Monahans,74.84,149.69,83.91,149.69,383.29,Single-ply,SBD,M
Boys,74.84,4,Oscar Garcia,Pecos,71.67,142.88,88.45,133.81,365.14,Single-ply,SBD,M
Boys,74.84,5,Oscar Hernandez,Pecos,72.94,136.08,79.38,133.81,349.27,Single-ply,SBD,M
Boys,74.84,6,Austin Awbrey,Kermit,74.75,111.13,92.99,140.61,344.73,Single-ply,SBD,M
Boys,74.84,7,Tyler Davis,Pecos,72.03,117.93,79.38,133.81,331.12,Single-ply,SBD,M
Boys,74.84,DQ,Aaron Castillo,Pecos,68.95,,,,,Single-ply,SBD,M
Boys,82.1,1,Jesus Castillo,Fort Stockton,79.38,192.78,102.06,229.06,523.9,Single-ply,SBD,M
Boys,82.1,2,Christian Gonzales,Monahans,80.2,195.04,115.67,181.44,492.15,Single-ply,SBD,M
Boys,82.1,3,Mikey Valdez,Kermit,77.93,147.42,99.79,142.88,390.09,Single-ply,SBD,M
Boys,82.1,4,Taylor Thompson #4,Kermit,77.56,136.08,88.45,149.69,374.21,Single-ply,SBD,M
Boys,82.1,5,Andrew Navarette,Pecos,82.1,140.61,83.91,149.69,374.21,Single-ply,SBD,M
Boys,82.1,6,Jalen Falcon,Fort Stockton,81.19,147.42,74.84,147.42,369.68,Single-ply,SBD,M
Boys,82.1,7,Daniel Self,Monahans,77.47,124.74,79.38,140.61,344.73,Single-ply,SBD,M
Boys,82.1,DQ,Justin Thorton,Pecos,79.29,,,,,Single-ply,SBD,M
Boys,89.81,1,Joedward Gomez,Pecos,85.73,197.31,117.93,185.97,501.22,Single-ply,SBD,M
Boys,89.81,2,Jesse Barrios,Fort Stockton,88.9,154.22,104.33,181.44,439.98,Single-ply,SBD,M
Boys,89.81,3,Tivo Armendariz,Monahans,88.45,172.37,99.79,158.76,430.91,Single-ply,SBD,M
Boys,89.81,4,Hector Ontiveros,Fort Stockton,84.28,136.08,104.33,170.1,410.5,Single-ply,SBD,M
Boys,89.81,5,Kyle Treadwell,Pecos,85.28,142.88,90.72,167.83,401.43,Single-ply,SBD,M
Boys,89.81,6,Barry Clayton,Monahans,84.73,156.49,63.5,131.54,351.53,Single-ply,SBD,M
Boys,89.81,7,Francisco Lopez,Monahans,89.72,113.4,77.11,131.54,322.05,Single-ply,SBD,M
Boys,89.81,8,Parker May,Monahans,86.09,111.13,56.7,124.74,292.57,Single-ply,SBD,M
Boys,99.79,1,Brandon Sanchez,Fort Stockton,97.07,238.14,136.08,238.14,612.35,Single-ply,SBD,M
Boys,99.79,2,Joe Torres #8,Kermit,96.16,197.31,113.4,174.63,485.34,Single-ply,SBD,M
Boys,99.79,3,Berry Kilgore,Kermit,97.98,181.44,117.93,183.7,483.08,Single-ply,SBD,M
Boys,99.79,4,Arthur Sedillos,Monahans,93.89,185.97,106.59,188.24,480.81,Single-ply,SBD,M
Boys,99.79,5,Matt McGuire,Fort Stockton,94.8,181.44,115.67,181.44,478.54,Single-ply,SBD,M
Boys,99.79,6,Evan Card,Fort Stockton,91.08,170.1,90.72,185.97,446.79,Single-ply,SBD,M
Boys,99.79,7,Michael Powers,Fort Stockton,94.35,156.49,97.52,163.29,417.3,Single-ply,SBD,M
Boys,99.79,8,Garrett Ford,Monahans,92.08,140.61,99.79,167.83,408.23,Single-ply,SBD,M
Boys,99.79,9,Eddie Fuentes,Pecos,95.16,140.61,83.91,140.61,365.14,Single-ply,SBD,M
Boys,99.79,10,Manny Rodriguez,Fort Stockton,98.88,136.08,88.45,136.08,360.61,Single-ply,SBD,M
Boys,99.79,11,Chris Arroyo,Monahans,97.89,149.69,72.57,129.27,351.53,Single-ply,SBD,M
Boys,99.79,12,Marcus Williams,Kermit,93.35,127.01,81.65,95.25,303.91,Single-ply,SBD,M
Boys,109.77,1,Richard Woods,Pecos,100.7,174.63,108.86,192.78,476.27,Single-ply,SBD,M
Boys,109.77,2,Keith Kalka,Fort Stockton,107.5,181.44,106.59,188.24,476.27,Single-ply,SBD,M
Boys,109.77,3,Jamie Melendez,Pecos,103.87,174.63,104.33,167.83,446.79,Single-ply,SBD,M
Boys,109.77,4,Leslie Blaire,Pecos,102.51,127.01,79.38,117.93,324.32,Single-ply,SBD,M
Boys,124.74,1,Anthony Ford,Monahans,115.58,213.19,142.88,226.8,582.87,Single-ply,SBD,M
Boys,124.74,2,Chance Arriaga,Fort Stockton,111.49,158.76,92.99,167.83,419.57,Single-ply,SBD,M
Boys,124.74,3,Bubba Spencer,Monahans,117.39,163.29,92.99,149.69,405.97,Single-ply,SBD,M
Boys,124.74+,1,Andrew Rawling,Monahans,126.01,272.16,129.27,233.6,635.03,Single-ply,SBD,M
Boys,124.74+,2,Dakota Gonzales,Fort Stockton,130.63,206.38,124.74,192.78,523.9,Single-ply,SBD,M
Boys,124.74+,3,Nicolas Franco,Pecos,139.25,181.44,117.93,170.1,469.47,Single-ply,SBD,M
Boys,124.74+,4,Tyler Ramos,Pecos,143.24,244.94,108.86,,353.8,Single-ply,SB,M
Boys,124.74+,5,Ross Phipps,Monahans,144.15,127.01,56.7,147.42,331.12,Single-ply,SBD,M
